-- Merging decision tree log ---
manifest
ADDED from /Users/pramodyadav/Documents/Code/reactNative/Test/Mdoc_SIT/android/app/src/main/AndroidManifest.xml:1:1-25:12
INJECTED from /Users/pramodyadav/Documents/Code/reactNative/Test/Mdoc_SIT/android/app/src/main/AndroidManifest.xml:1:1-25:12
INJECTED from /Users/pramodyadav/Documents/Code/reactNative/Test/Mdoc_SIT/android/app/src/main/AndroidManifest.xml:1:1-25:12
INJECTED from /Users/pramodyadav/Documents/Code/reactNative/Test/Mdoc_SIT/android/app/src/main/AndroidManifest.xml:1:1-25:12
MERGED from /Users/pramodyadav/Documents/Code/reactNative/Test/Mdoc_SIT/android/app/src/main/AndroidManifest.xml:1:1-25:12
MERGED from [com.facebook.flipper:flipper:0.75.1] /Users/pramodyadav/.gradle/caches/transforms-2/files-2.1/a8f6015f96666ab8d93bfe5b64998bc8/jetified-flipper-0.75.1/AndroidManifest.xml:8:1-18:12
MERGED from [com.facebook.flipper:flipper-network-plugin:0.75.1] /Users/pramodyadav/.gradle/caches/transforms-2/files-2.1/d8279ebfbcca51b68586de1b9bc17210/jetified-flipper-network-plugin-0.75.1/AndroidManifest.xml:8:1-15:12
MERGED from [com.facebook.flipper:flipper-fresco-plugin:0.75.1] /Users/pramodyadav/.gradle/caches/transforms-2/files-2.1/13e0ca18817a9e59a8c4a94704ec8c3c/jetified-flipper-fresco-plugin-0.75.1/AndroidManifest.xml:8:1-15:12
MERGED from [:react-native-community_async-storage] /Users/pramodyadav/Documents/Code/reactNative/Test/Mdoc_SIT/node_modules/@react-native-community/async-storage/android/build/intermediates/library_manifest/debug/AndroidManifest.xml:2:1-9:12
MERGED from [:react-native-community_masked-view] /Users/pramodyadav/Documents/Code/reactNative/Test/Mdoc_SIT/node_modules/@react-native-community/masked-view/android/build/intermediates/library_manifest/debug/AndroidManifest.xml:2:1-9:12
MERGED from [:react-native-community_netinfo] /Users/pramodyadav/Documents/Code/reactNative/Test/Mdoc_SIT/node_modules/@react-native-community/netinfo/android/build/intermediates/library_manifest/debug/AndroidManifest.xml:2:1-12:12
MERGED from [:react-native-config] /Users/pramodyadav/Documents/Code/reactNative/Test/Mdoc_SIT/node_modules/react-native-config/android/build/intermediates/library_manifest/debug/AndroidManifest.xml:2:1-11:12
MERGED from [:react-native-device-info] /Users/pramodyadav/Documents/Code/reactNative/Test/Mdoc_SIT/node_modules/react-native-device-info/android/build/intermediates/library_manifest/debug/AndroidManifest.xml:2:1-11:12
MERGED from [:react-native-fast-image] /Users/pramodyadav/Documents/Code/reactNative/Test/Mdoc_SIT/node_modules/react-native-fast-image/android/build/intermediates/library_manifest/debug/AndroidManifest.xml:2:1-11:12
MERGED from [:react-native-gesture-handler] /Users/pramodyadav/Documents/Code/reactNative/Test/Mdoc_SIT/node_modules/react-native-gesture-handler/android/build/intermediates/library_manifest/debug/AndroidManifest.xml:2:1-11:12
MERGED from [:react-native-safe-area-context] /Users/pramodyadav/Documents/Code/reactNative/Test/Mdoc_SIT/node_modules/react-native-safe-area-context/android/build/intermediates/library_manifest/debug/AndroidManifest.xml:2:1-9:12
MERGED from [:react-native-screens] /Users/pramodyadav/Documents/Code/reactNative/Test/Mdoc_SIT/node_modules/react-native-screens/android/build/intermediates/library_manifest/debug/AndroidManifest.xml:2:1-11:12
MERGED from [:react-native-vector-icons] /Users/pramodyadav/Documents/Code/reactNative/Test/Mdoc_SIT/node_modules/react-native-vector-icons/android/build/intermediates/library_manifest/debug/AndroidManifest.xml:2:1-11:12
MERGED from [:react-native-webview] /Users/pramodyadav/Documents/Code/reactNative/Test/Mdoc_SIT/node_modules/react-native-webview/android/build/intermediates/library_manifest/debug/AndroidManifest.xml:2:1-23:12
MERGED from [com.facebook.react:react-native:0.64.0] /Users/pramodyadav/.gradle/caches/transforms-2/files-2.1/a56511b037fb04f244c71df782e66ef7/jetified-react-native-0.64.0/AndroidManifest.xml:2:1-13:12
MERGED from [androidx.swiperefreshlayout:swiperefreshlayout:1.0.0] /Users/pramodyadav/.gradle/caches/transforms-2/files-2.1/5c64f35c4f864d4cd139ccbbff91ceb9/swiperefreshlayout-1.0.0/AndroidManifest.xml:17:1-22:12
MERGED from [org.webkit:android-jsc:r245459] /Users/pramodyadav/.gradle/caches/transforms-2/files-2.1/65337ca8c0783fc27be60d476a5f6b75/jetified-android-jsc-r245459/AndroidManifest.xml:2:1-11:12
MERGED from [:react-native-reanimated] /Users/pramodyadav/Documents/Code/reactNative/Test/Mdoc_SIT/node_modules/react-native-reanimated/android/build/.transforms/2f2f5f4c70fe1f5327bb31f187dd0465/jetified-react-native-reanimated-64/AndroidManifest.xml:2:1-11:12
MERGED from [com.facebook.fresco:flipper:2.2.0] /Users/pramodyadav/.gradle/caches/transforms-2/files-2.1/84c6a932a42f35f9b796c5d67e6eb742/jetified-flipper-2.2.0/AndroidManifest.xml:2:1-9:12
MERGED from [com.facebook.fresco:stetho:2.2.0] /Users/pramodyadav/.gradle/caches/transforms-2/files-2.1/5f2c193a45b1b439ec8f5a8edcb37f33/jetified-stetho-2.2.0/AndroidManifest.xml:2:1-9:12
MERGED from [com.facebook.fresco:fresco:2.2.0] /Users/pramodyadav/.gradle/caches/transforms-2/files-2.1/336cee0c87f467fe6bfb36840b0630b2/jetified-fresco-2.2.0/AndroidManifest.xml:2:1-9:12
MERGED from [com.facebook.fresco:drawee:2.2.0] /Users/pramodyadav/.gradle/caches/transforms-2/files-2.1/8850ed829d25245e8497182323bc73d2/jetified-drawee-2.2.0/AndroidManifest.xml:2:1-9:12
MERGED from [com.facebook.fresco:nativeimagefilters:2.2.0] /Users/pramodyadav/.gradle/caches/transforms-2/files-2.1/cedca5e04b0c20fa79ac1887f71f3325/jetified-nativeimagefilters-2.2.0/AndroidManifest.xml:2:1-9:12
MERGED from [com.facebook.fresco:memory-type-native:2.2.0] /Users/pramodyadav/.gradle/caches/transforms-2/files-2.1/e5db14b71da4d91c0ca7d2ee268e707a/jetified-memory-type-native-2.2.0/AndroidManifest.xml:2:1-9:12
MERGED from [com.facebook.fresco:memory-type-java:2.2.0] /Users/pramodyadav/.gradle/caches/transforms-2/files-2.1/3c0394800bb3c89c17ec23de03c5f2ca/jetified-memory-type-java-2.2.0/AndroidManifest.xml:2:1-9:12
MERGED from [com.facebook.fresco:imagepipeline-native:2.2.0] /Users/pramodyadav/.gradle/caches/transforms-2/files-2.1/cf4b730f71bf97441bdf4ebe8cfeeb88/jetified-imagepipeline-native-2.2.0/AndroidManifest.xml:2:1-9:12
MERGED from [com.facebook.fresco:soloader:2.2.0] /Users/pramodyadav/.gradle/caches/transforms-2/files-2.1/c35a46a0a862651f1e0a89250dcee30d/jetified-soloader-2.2.0/AndroidManifest.xml:2:1-9:12
MERGED from [com.facebook.soloader:soloader:0.10.1] /Users/pramodyadav/.gradle/caches/transforms-2/files-2.1/5fb5c0c623111e89d0cb2cc6cbe55df8/jetified-soloader-0.10.1/AndroidManifest.xml:2:1-13:12
MERGED from [com.google.android.material:material:1.1.0] /Users/pramodyadav/.gradle/caches/transforms-2/files-2.1/747f53e70e3372703b3570ac3dfbfb03/material-1.1.0/AndroidManifest.xml:17:1-24:12
MERGED from [androidx.appcompat:appcompat:1.1.0] /Users/pramodyadav/.gradle/caches/transforms-2/files-2.1/d14dbad7340cad958a2e361a440b498d/appcompat-1.1.0/AndroidManifest.xml:17:1-24:12
MERGED from [androidx.sqlite:sqlite-framework:2.1.0] /Users/pramodyadav/.gradle/caches/transforms-2/files-2.1/ce476dc2f1f7d59691ad234de1ec2fb1/sqlite-framework-2.1.0/AndroidManifest.xml:17:1-24:12
MERGED from [com.facebook.fresco:imagepipeline-okhttp3:2.0.0] /Users/pramodyadav/.gradle/caches/transforms-2/files-2.1/f66a3370e9e4f8cb0ae0c6936c538c41/jetified-imagepipeline-okhttp3-2.0.0/AndroidManifest.xml:2:1-9:12
MERGED from [com.facebook.fresco:memory-type-ashmem:2.2.0] /Users/pramodyadav/.gradle/caches/transforms-2/files-2.1/fc37ff7af2e3c5de8e592a9550a0df07/jetified-memory-type-ashmem-2.2.0/AndroidManifest.xml:2:1-9:12
MERGED from [com.facebook.fresco:imagepipeline:2.2.0] /Users/pramodyadav/.gradle/caches/transforms-2/files-2.1/cda5d9a1a957ef402e55e5ba5c5bfd6d/jetified-imagepipeline-2.2.0/AndroidManifest.xml:2:1-9:12
MERGED from [com.facebook.fresco:nativeimagetranscoder:2.2.0] /Users/pramodyadav/.gradle/caches/transforms-2/files-2.1/8f540c10f5114d05b8ee24db3e19e1f8/jetified-nativeimagetranscoder-2.2.0/AndroidManifest.xml:2:1-9:12
MERGED from [com.facebook.fresco:imagepipeline-base:2.2.0] /Users/pramodyadav/.gradle/caches/transforms-2/files-2.1/b51f59890c1c9ada8eed6d21cecc075e/jetified-imagepipeline-base-2.2.0/AndroidManifest.xml:2:1-9:12
MERGED from [com.github.bumptech.glide:okhttp3-integration:4.11.0] /Users/pramodyadav/.gradle/caches/transforms-2/files-2.1/a04caada1575963807067fecab4ddb7f/jetified-okhttp3-integration-4.11.0/AndroidManifest.xml:2:1-16:12
MERGED from [com.github.bumptech.glide:glide:4.11.0] /Users/pramodyadav/.gradle/caches/transforms-2/files-2.1/56f4cf96c56e3c6b85582297d2e8851f/jetified-glide-4.11.0/AndroidManifest.xml:2:1-12:12
MERGED from [androidx.appcompat:appcompat-resources:1.1.0] /Users/pramodyadav/.gradle/caches/transforms-2/files-2.1/baebfc24ee3e9d675a4614c1f27f118a/jetified-appcompat-resources-1.1.0/AndroidManifest.xml:17:1-24:12
MERGED from [androidx.vectordrawable:vectordrawable-animated:1.1.0] /Users/pramodyadav/.gradle/caches/transforms-2/files-2.1/2ee35bfe9d2e9019f071c4a047a96db2/vectordrawable-animated-1.1.0/AndroidManifest.xml:17:1-24:12
MERGED from [androidx.interpolator:interpolator:1.0.0] /Users/pramodyadav/.gradle/caches/transforms-2/files-2.1/6e0f82970a69a6b386ee45a08ac362fe/interpolator-1.0.0/AndroidManifest.xml:17:1-22:12
MERGED from [com.google.android.gms:play-services-iid:17.0.0] /Users/pramodyadav/.gradle/caches/transforms-2/files-2.1/e18b3ef1604371e7e10a2586fcf5f032/jetified-play-services-iid-17.0.0/AndroidManifest.xml:17:1-28:12
MERGED from [com.google.android.gms:play-services-base:17.0.0] /Users/pramodyadav/.gradle/caches/transforms-2/files-2.1/2631375de80937c90cd3a1032ab35871/jetified-play-services-base-17.0.0/AndroidManifest.xml:17:1-29:12
MERGED from [com.google.android.gms:play-services-stats:17.0.0] /Users/pramodyadav/.gradle/caches/transforms-2/files-2.1/e1bd2db1feee5d3ba4c2e9fd0c079649/jetified-play-services-stats-17.0.0/AndroidManifest.xml:2:1-9:12
MERGED from [com.google.android.gms:play-services-tasks:17.0.0] /Users/pramodyadav/.gradle/caches/transforms-2/files-2.1/b7a1c6e780b5901c5c6ba597df670b7d/jetified-play-services-tasks-17.0.0/AndroidManifest.xml:2:1-9:12
MERGED from [com.google.android.gms:play-services-basement:17.0.0] /Users/pramodyadav/.gradle/caches/transforms-2/files-2.1/dcffa74d8d015470a7eae32b9eb648c7/jetified-play-services-basement-17.0.0/AndroidManifest.xml:17:1-28:12
MERGED from [androidx.viewpager2:viewpager2:1.0.0] /Users/pramodyadav/.gradle/caches/transforms-2/files-2.1/803d31b2df2f8d968e6cb7c3ffa37ef9/jetified-viewpager2-1.0.0/AndroidManifest.xml:17:1-24:12
MERGED from [androidx.fragment:fragment:1.2.1] /Users/pramodyadav/.gradle/caches/transforms-2/files-2.1/5e5754defa7ec1b661ffd11a17838c67/fragment-1.2.1/AndroidManifest.xml:17:1-24:12
MERGED from [androidx.coordinatorlayout:coordinatorlayout:1.1.0] /Users/pramodyadav/.gradle/caches/transforms-2/files-2.1/3c1c25210c9523b781f68f6e5260d398/coordinatorlayout-1.1.0/AndroidManifest.xml:17:1-24:12
MERGED from [androidx.drawerlayout:drawerlayout:1.0.0] /Users/pramodyadav/.gradle/caches/transforms-2/files-2.1/22a5d9f52d495a432176451a4c4ba982/drawerlayout-1.0.0/AndroidManifest.xml:17:1-22:12
MERGED from [androidx.viewpager:viewpager:1.0.0] /Users/pramodyadav/.gradle/caches/transforms-2/files-2.1/2f70304b103eacfab05dbe55739e869f/viewpager-1.0.0/AndroidManifest.xml:17:1-22:12
MERGED from [androidx.legacy:legacy-support-core-utils:1.0.0] /Users/pramodyadav/.gradle/caches/transforms-2/files-2.1/154602205569c6147c1ab4260dd9d425/legacy-support-core-utils-1.0.0/AndroidManifest.xml:17:1-22:12
MERGED from [androidx.loader:loader:1.0.0] /Users/pramodyadav/.gradle/caches/transforms-2/files-2.1/49dee3543bc65746b6bba9f83aa0b18a/loader-1.0.0/AndroidManifest.xml:17:1-22:12
MERGED from [androidx.activity:activity:1.1.0] /Users/pramodyadav/.gradle/caches/transforms-2/files-2.1/412f4e60090d6c7e949274f12fef4b1d/jetified-activity-1.1.0/AndroidManifest.xml:17:1-24:12
MERGED from [androidx.recyclerview:recyclerview:1.1.0] /Users/pramodyadav/.gradle/caches/transforms-2/files-2.1/c38f0dcdb4eabb88f8961812937ce545/recyclerview-1.1.0/AndroidManifest.xml:17:1-24:12
MERGED from [androidx.customview:customview:1.0.0] /Users/pramodyadav/.gradle/caches/transforms-2/files-2.1/86cf751735e9e9dd0416cce35c4a71a1/customview-1.0.0/AndroidManifest.xml:17:1-22:12
MERGED from [androidx.transition:transition:1.2.0] /Users/pramodyadav/.gradle/caches/transforms-2/files-2.1/ae1a1dddf9cea612695d8157e2ff38cd/transition-1.2.0/AndroidManifest.xml:17:1-24:12
MERGED from [androidx.vectordrawable:vectordrawable:1.1.0] /Users/pramodyadav/.gradle/caches/transforms-2/files-2.1/361553562ce35cf8cf447832c4a7d1ec/vectordrawable-1.1.0/AndroidManifest.xml:17:1-24:12
MERGED from [androidx.core:core:1.3.2] /Users/pramodyadav/.gradle/caches/transforms-2/files-2.1/f03ec885b8fabdebb4f0d3bbade5009e/core-1.3.2/AndroidManifest.xml:17:1-26:12
MERGED from [androidx.cursoradapter:cursoradapter:1.0.0] /Users/pramodyadav/.gradle/caches/transforms-2/files-2.1/bae4382a703142a8f82a100a412243f1/cursoradapter-1.0.0/AndroidManifest.xml:17:1-22:12
MERGED from [androidx.sqlite:sqlite:2.1.0] /Users/pramodyadav/.gradle/caches/transforms-2/files-2.1/74153744c3b76afb34d0c28a686a981b/sqlite-2.1.0/AndroidManifest.xml:17:1-24:12
MERGED from [androidx.versionedparcelable:versionedparcelable:1.1.0] /Users/pramodyadav/.gradle/caches/transforms-2/files-2.1/af9af86a2035b10a0514f89f66cf8a9a/versionedparcelable-1.1.0/AndroidManifest.xml:17:1-27:12
MERGED from [com.github.bumptech.glide:gifdecoder:4.11.0] /Users/pramodyadav/.gradle/caches/transforms-2/files-2.1/f796ac2056ba102e7ed64f11fdeee34b/jetified-gifdecoder-4.11.0/AndroidManifest.xml:2:1-11:12
MERGED from [androidx.exifinterface:exifinterface:1.0.0] /Users/pramodyadav/.gradle/caches/transforms-2/files-2.1/f87cc3413733036af81d240f8b8c99f4/exifinterface-1.0.0/AndroidManifest.xml:17:1-22:12
MERGED from [androidx.lifecycle:lifecycle-viewmodel-savedstate:2.2.0] /Users/pramodyadav/.gradle/caches/transforms-2/files-2.1/cbff631e500aff82164944184b49a648/jetified-lifecycle-viewmodel-savedstate-2.2.0/AndroidManifest.xml:17:1-24:12
MERGED from [androidx.lifecycle:lifecycle-viewmodel:2.2.0] /Users/pramodyadav/.gradle/caches/transforms-2/files-2.1/5af1825acc1d96709826d913b19b2820/lifecycle-viewmodel-2.2.0/AndroidManifest.xml:17:1-24:12
MERGED from [androidx.cardview:cardview:1.0.0] /Users/pramodyadav/.gradle/caches/transforms-2/files-2.1/dcc76cd07ebcaa6166d73d461b1667fa/cardview-1.0.0/AndroidManifest.xml:17:1-22:12
MERGED from [androidx.lifecycle:lifecycle-runtime:2.2.0] /Users/pramodyadav/.gradle/caches/transforms-2/files-2.1/b37a656be7da34e79d326523a32fbcaa/lifecycle-runtime-2.2.0/AndroidManifest.xml:17:1-24:12
MERGED from [androidx.savedstate:savedstate:1.0.0] /Users/pramodyadav/.gradle/caches/transforms-2/files-2.1/29e9e6ac99026fff5bb21139b2ad74ac/jetified-savedstate-1.0.0/AndroidManifest.xml:17:1-24:12
MERGED from [androidx.lifecycle:lifecycle-livedata:2.0.0] /Users/pramodyadav/.gradle/caches/transforms-2/files-2.1/15faa7fdc535e832982b4615d300cb77/lifecycle-livedata-2.0.0/AndroidManifest.xml:17:1-22:12
MERGED from [androidx.lifecycle:lifecycle-livedata-core:2.2.0] /Users/pramodyadav/.gradle/caches/transforms-2/files-2.1/27e0ecfbdce6f985a506017f5fd54aeb/lifecycle-livedata-core-2.2.0/AndroidManifest.xml:17:1-24:12
MERGED from [androidx.arch.core:core-runtime:2.1.0] /Users/pramodyadav/.gradle/caches/transforms-2/files-2.1/268ebc0b2bd661fb18fff0cceeca14c7/core-runtime-2.1.0/AndroidManifest.xml:17:1-24:12
MERGED from [androidx.documentfile:documentfile:1.0.0] /Users/pramodyadav/.gradle/caches/transforms-2/files-2.1/11ae9ec956d6bcf258c0fc60ed922820/documentfile-1.0.0/AndroidManifest.xml:17:1-22:12
MERGED from [androidx.localbroadcastmanager:localbroadcastmanager:1.0.0] /Users/pramodyadav/.gradle/caches/transforms-2/files-2.1/17959936f75234613fb11b8c15b12e4a/localbroadcastmanager-1.0.0/AndroidManifest.xml:17:1-22:12
MERGED from [androidx.print:print:1.0.0] /Users/pramodyadav/.gradle/caches/transforms-2/files-2.1/a49d8fed6e1f73515c23ded9f02890c2/print-1.0.0/AndroidManifest.xml:17:1-22:12
MERGED from [com.android.installreferrer:installreferrer:1.1.2] /Users/pramodyadav/.gradle/caches/transforms-2/files-2.1/150d95ff2179d66a1b5aeef5973627bb/jetified-installreferrer-1.1.2/AndroidManifest.xml:2:1-13:12
MERGED from [com.facebook.fresco:fbcore:2.2.0] /Users/pramodyadav/.gradle/caches/transforms-2/files-2.1/5ff10ad0f2bea4b2419e86a549e99aac/jetified-fbcore-2.2.0/AndroidManifest.xml:2:1-9:12
MERGED from [com.facebook.fresco:ui-common:2.2.0] /Users/pramodyadav/.gradle/caches/transforms-2/files-2.1/ffdaca04e33e18187dfc99a2b0ddad3b/jetified-ui-common-2.2.0/AndroidManifest.xml:2:1-9:12
INJECTED from /Users/pramodyadav/Documents/Code/reactNative/Test/Mdoc_SIT/android/app/src/debug/AndroidManifest.xml:2:1-13:12
INJECTED from /Users/pramodyadav/Documents/Code/reactNative/Test/Mdoc_SIT/android/app/src/debug/AndroidManifest.xml:2:1-13:12
INJECTED from /Users/pramodyadav/Documents/Code/reactNative/Test/Mdoc_SIT/android/app/src/debug/AndroidManifest.xml:2:1-13:12
	package
		ADDED from /Users/pramodyadav/Documents/Code/reactNative/Test/Mdoc_SIT/android/app/src/main/AndroidManifest.xml:2:3-27
		INJECTED from /Users/pramodyadav/Documents/Code/reactNative/Test/Mdoc_SIT/android/app/src/main/AndroidManifest.xml
		ADDED from /Users/pramodyadav/Documents/Code/reactNative/Test/Mdoc_SIT/android/app/src/main/AndroidManifest.xml:2:3-27
		INJECTED from /Users/pramodyadav/Documents/Code/reactNative/Test/Mdoc_SIT/android/app/src/debug/AndroidManifest.xml
	android:versionName
		INJECTED from /Users/pramodyadav/Documents/Code/reactNative/Test/Mdoc_SIT/android/app/src/main/AndroidManifest.xml
		ADDED from /Users/pramodyadav/Documents/Code/reactNative/Test/Mdoc_SIT/android/app/src/main/AndroidManifest.xml:1:1-25:12
		INJECTED from /Users/pramodyadav/Documents/Code/reactNative/Test/Mdoc_SIT/android/app/src/debug/AndroidManifest.xml
	xmlns:tools
		ADDED from /Users/pramodyadav/Documents/Code/reactNative/Test/Mdoc_SIT/android/app/src/debug/AndroidManifest.xml:3:5-51
	android:versionCode
		INJECTED from /Users/pramodyadav/Documents/Code/reactNative/Test/Mdoc_SIT/android/app/src/main/AndroidManifest.xml
		ADDED from /Users/pramodyadav/Documents/Code/reactNative/Test/Mdoc_SIT/android/app/src/main/AndroidManifest.xml:1:1-25:12
		INJECTED from /Users/pramodyadav/Documents/Code/reactNative/Test/Mdoc_SIT/android/app/src/debug/AndroidManifest.xml
	xmlns:android
		ADDED from /Users/pramodyadav/Documents/Code/reactNative/Test/Mdoc_SIT/android/app/src/main/AndroidManifest.xml:1:11-69
uses-permission#android.permission.INTERNET
ADDED from /Users/pramodyadav/Documents/Code/reactNative/Test/Mdoc_SIT/android/app/src/main/AndroidManifest.xml:4:5-67
MERGED from [com.facebook.flipper:flipper:0.75.1] /Users/pramodyadav/.gradle/caches/transforms-2/files-2.1/a8f6015f96666ab8d93bfe5b64998bc8/jetified-flipper-0.75.1/AndroidManifest.xml:15:5-67
MERGED from [com.facebook.flipper:flipper:0.75.1] /Users/pramodyadav/.gradle/caches/transforms-2/files-2.1/a8f6015f96666ab8d93bfe5b64998bc8/jetified-flipper-0.75.1/AndroidManifest.xml:15:5-67
MERGED from [com.google.android.gms:play-services-iid:17.0.0] /Users/pramodyadav/.gradle/caches/transforms-2/files-2.1/e18b3ef1604371e7e10a2586fcf5f032/jetified-play-services-iid-17.0.0/AndroidManifest.xml:24:5-67
MERGED from [com.google.android.gms:play-services-iid:17.0.0] /Users/pramodyadav/.gradle/caches/transforms-2/files-2.1/e18b3ef1604371e7e10a2586fcf5f032/jetified-play-services-iid-17.0.0/AndroidManifest.xml:24:5-67
	android:name
		ADDED from /Users/pramodyadav/Documents/Code/reactNative/Test/Mdoc_SIT/android/app/src/main/AndroidManifest.xml:4:22-64
application
ADDED from /Users/pramodyadav/Documents/Code/reactNative/Test/Mdoc_SIT/android/app/src/main/AndroidManifest.xml:6:5-24:19
MERGED from /Users/pramodyadav/Documents/Code/reactNative/Test/Mdoc_SIT/android/app/src/main/AndroidManifest.xml:6:5-24:19
MERGED from /Users/pramodyadav/Documents/Code/reactNative/Test/Mdoc_SIT/android/app/src/main/AndroidManifest.xml:6:5-24:19
MERGED from [:react-native-webview] /Users/pramodyadav/Documents/Code/reactNative/Test/Mdoc_SIT/node_modules/react-native-webview/android/build/intermediates/library_manifest/debug/AndroidManifest.xml:11:5-21:19
MERGED from [:react-native-webview] /Users/pramodyadav/Documents/Code/reactNative/Test/Mdoc_SIT/node_modules/react-native-webview/android/build/intermediates/library_manifest/debug/AndroidManifest.xml:11:5-21:19
MERGED from [com.facebook.react:react-native:0.64.0] /Users/pramodyadav/.gradle/caches/transforms-2/files-2.1/a56511b037fb04f244c71df782e66ef7/jetified-react-native-0.64.0/AndroidManifest.xml:11:5-20
MERGED from [com.facebook.react:react-native:0.64.0] /Users/pramodyadav/.gradle/caches/transforms-2/files-2.1/a56511b037fb04f244c71df782e66ef7/jetified-react-native-0.64.0/AndroidManifest.xml:11:5-20
MERGED from [com.facebook.soloader:soloader:0.10.1] /Users/pramodyadav/.gradle/caches/transforms-2/files-2.1/5fb5c0c623111e89d0cb2cc6cbe55df8/jetified-soloader-0.10.1/AndroidManifest.xml:11:5-20
MERGED from [com.facebook.soloader:soloader:0.10.1] /Users/pramodyadav/.gradle/caches/transforms-2/files-2.1/5fb5c0c623111e89d0cb2cc6cbe55df8/jetified-soloader-0.10.1/AndroidManifest.xml:11:5-20
MERGED from [com.google.android.material:material:1.1.0] /Users/pramodyadav/.gradle/caches/transforms-2/files-2.1/747f53e70e3372703b3570ac3dfbfb03/material-1.1.0/AndroidManifest.xml:22:5-20
MERGED from [com.google.android.material:material:1.1.0] /Users/pramodyadav/.gradle/caches/transforms-2/files-2.1/747f53e70e3372703b3570ac3dfbfb03/material-1.1.0/AndroidManifest.xml:22:5-20
MERGED from [com.github.bumptech.glide:okhttp3-integration:4.11.0] /Users/pramodyadav/.gradle/caches/transforms-2/files-2.1/a04caada1575963807067fecab4ddb7f/jetified-okhttp3-integration-4.11.0/AndroidManifest.xml:10:5-14:19
MERGED from [com.github.bumptech.glide:okhttp3-integration:4.11.0] /Users/pramodyadav/.gradle/caches/transforms-2/files-2.1/a04caada1575963807067fecab4ddb7f/jetified-okhttp3-integration-4.11.0/AndroidManifest.xml:10:5-14:19
MERGED from [com.github.bumptech.glide:glide:4.11.0] /Users/pramodyadav/.gradle/caches/transforms-2/files-2.1/56f4cf96c56e3c6b85582297d2e8851f/jetified-glide-4.11.0/AndroidManifest.xml:10:5-20
MERGED from [com.github.bumptech.glide:glide:4.11.0] /Users/pramodyadav/.gradle/caches/transforms-2/files-2.1/56f4cf96c56e3c6b85582297d2e8851f/jetified-glide-4.11.0/AndroidManifest.xml:10:5-20
MERGED from [com.google.android.gms:play-services-iid:17.0.0] /Users/pramodyadav/.gradle/caches/transforms-2/files-2.1/e18b3ef1604371e7e10a2586fcf5f032/jetified-play-services-iid-17.0.0/AndroidManifest.xml:26:5-20
MERGED from [com.google.android.gms:play-services-iid:17.0.0] /Users/pramodyadav/.gradle/caches/transforms-2/files-2.1/e18b3ef1604371e7e10a2586fcf5f032/jetified-play-services-iid-17.0.0/AndroidManifest.xml:26:5-20
MERGED from [com.google.android.gms:play-services-base:17.0.0] /Users/pramodyadav/.gradle/caches/transforms-2/files-2.1/2631375de80937c90cd3a1032ab35871/jetified-play-services-base-17.0.0/AndroidManifest.xml:22:5-27:19
MERGED from [com.google.android.gms:play-services-base:17.0.0] /Users/pramodyadav/.gradle/caches/transforms-2/files-2.1/2631375de80937c90cd3a1032ab35871/jetified-play-services-base-17.0.0/AndroidManifest.xml:22:5-27:19
MERGED from [com.google.android.gms:play-services-stats:17.0.0] /Users/pramodyadav/.gradle/caches/transforms-2/files-2.1/e1bd2db1feee5d3ba4c2e9fd0c079649/jetified-play-services-stats-17.0.0/AndroidManifest.xml:7:5-20
MERGED from [com.google.android.gms:play-services-stats:17.0.0] /Users/pramodyadav/.gradle/caches/transforms-2/files-2.1/e1bd2db1feee5d3ba4c2e9fd0c079649/jetified-play-services-stats-17.0.0/AndroidManifest.xml:7:5-20
MERGED from [com.google.android.gms:play-services-tasks:17.0.0] /Users/pramodyadav/.gradle/caches/transforms-2/files-2.1/b7a1c6e780b5901c5c6ba597df670b7d/jetified-play-services-tasks-17.0.0/AndroidManifest.xml:7:5-20
MERGED from [com.google.android.gms:play-services-tasks:17.0.0] /Users/pramodyadav/.gradle/caches/transforms-2/files-2.1/b7a1c6e780b5901c5c6ba597df670b7d/jetified-play-services-tasks-17.0.0/AndroidManifest.xml:7:5-20
MERGED from [com.google.android.gms:play-services-basement:17.0.0] /Users/pramodyadav/.gradle/caches/transforms-2/files-2.1/dcffa74d8d015470a7eae32b9eb648c7/jetified-play-services-basement-17.0.0/AndroidManifest.xml:22:5-26:19
MERGED from [com.google.android.gms:play-services-basement:17.0.0] /Users/pramodyadav/.gradle/caches/transforms-2/files-2.1/dcffa74d8d015470a7eae32b9eb648c7/jetified-play-services-basement-17.0.0/AndroidManifest.xml:22:5-26:19
MERGED from [androidx.core:core:1.3.2] /Users/pramodyadav/.gradle/caches/transforms-2/files-2.1/f03ec885b8fabdebb4f0d3bbade5009e/core-1.3.2/AndroidManifest.xml:24:5-89
MERGED from [androidx.core:core:1.3.2] /Users/pramodyadav/.gradle/caches/transforms-2/files-2.1/f03ec885b8fabdebb4f0d3bbade5009e/core-1.3.2/AndroidManifest.xml:24:5-89
MERGED from [androidx.versionedparcelable:versionedparcelable:1.1.0] /Users/pramodyadav/.gradle/caches/transforms-2/files-2.1/af9af86a2035b10a0514f89f66cf8a9a/versionedparcelable-1.1.0/AndroidManifest.xml:24:5-25:19
MERGED from [androidx.versionedparcelable:versionedparcelable:1.1.0] /Users/pramodyadav/.gradle/caches/transforms-2/files-2.1/af9af86a2035b10a0514f89f66cf8a9a/versionedparcelable-1.1.0/AndroidManifest.xml:24:5-25:19
MERGED from [com.github.bumptech.glide:gifdecoder:4.11.0] /Users/pramodyadav/.gradle/caches/transforms-2/files-2.1/f796ac2056ba102e7ed64f11fdeee34b/jetified-gifdecoder-4.11.0/AndroidManifest.xml:9:5-20
MERGED from [com.github.bumptech.glide:gifdecoder:4.11.0] /Users/pramodyadav/.gradle/caches/transforms-2/files-2.1/f796ac2056ba102e7ed64f11fdeee34b/jetified-gifdecoder-4.11.0/AndroidManifest.xml:9:5-20
MERGED from [com.android.installreferrer:installreferrer:1.1.2] /Users/pramodyadav/.gradle/caches/transforms-2/files-2.1/150d95ff2179d66a1b5aeef5973627bb/jetified-installreferrer-1.1.2/AndroidManifest.xml:11:5-20
MERGED from [com.android.installreferrer:installreferrer:1.1.2] /Users/pramodyadav/.gradle/caches/transforms-2/files-2.1/150d95ff2179d66a1b5aeef5973627bb/jetified-installreferrer-1.1.2/AndroidManifest.xml:11:5-20
	android:appComponentFactory
		ADDED from [androidx.core:core:1.3.2] /Users/pramodyadav/.gradle/caches/transforms-2/files-2.1/f03ec885b8fabdebb4f0d3bbade5009e/core-1.3.2/AndroidManifest.xml:24:18-86
	android:label
		ADDED from /Users/pramodyadav/Documents/Code/reactNative/Test/Mdoc_SIT/android/app/src/main/AndroidManifest.xml:8:7-39
		ADDED from /Users/pramodyadav/Documents/Code/reactNative/Test/Mdoc_SIT/android/app/src/main/AndroidManifest.xml:8:7-39
	tools:ignore
		ADDED from /Users/pramodyadav/Documents/Code/reactNative/Test/Mdoc_SIT/android/app/src/debug/AndroidManifest.xml:10:9-48
	android:roundIcon
		ADDED from /Users/pramodyadav/Documents/Code/reactNative/Test/Mdoc_SIT/android/app/src/main/AndroidManifest.xml:10:7-52
		ADDED from /Users/pramodyadav/Documents/Code/reactNative/Test/Mdoc_SIT/android/app/src/main/AndroidManifest.xml:10:7-52
	tools:targetApi
		ADDED from /Users/pramodyadav/Documents/Code/reactNative/Test/Mdoc_SIT/android/app/src/debug/AndroidManifest.xml:9:9-29
	android:icon
		ADDED from /Users/pramodyadav/Documents/Code/reactNative/Test/Mdoc_SIT/android/app/src/main/AndroidManifest.xml:9:7-41
		ADDED from /Users/pramodyadav/Documents/Code/reactNative/Test/Mdoc_SIT/android/app/src/main/AndroidManifest.xml:9:7-41
	android:allowBackup
		ADDED from /Users/pramodyadav/Documents/Code/reactNative/Test/Mdoc_SIT/android/app/src/main/AndroidManifest.xml:11:7-34
		ADDED from /Users/pramodyadav/Documents/Code/reactNative/Test/Mdoc_SIT/android/app/src/main/AndroidManifest.xml:11:7-34
	android:theme
		ADDED from /Users/pramodyadav/Documents/Code/reactNative/Test/Mdoc_SIT/android/app/src/main/AndroidManifest.xml:12:7-38
		ADDED from /Users/pramodyadav/Documents/Code/reactNative/Test/Mdoc_SIT/android/app/src/main/AndroidManifest.xml:12:7-38
	android:usesCleartextTraffic
		ADDED from /Users/pramodyadav/Documents/Code/reactNative/Test/Mdoc_SIT/android/app/src/debug/AndroidManifest.xml:8:9-44
	android:name
		ADDED from /Users/pramodyadav/Documents/Code/reactNative/Test/Mdoc_SIT/android/app/src/main/AndroidManifest.xml:7:7-38
		ADDED from /Users/pramodyadav/Documents/Code/reactNative/Test/Mdoc_SIT/android/app/src/main/AndroidManifest.xml:7:7-38
activity#com.mdocclinic.MainActivity
ADDED from /Users/pramodyadav/Documents/Code/reactNative/Test/Mdoc_SIT/android/app/src/main/AndroidManifest.xml:13:7-23:18
	android:label
		ADDED from /Users/pramodyadav/Documents/Code/reactNative/Test/Mdoc_SIT/android/app/src/main/AndroidManifest.xml:15:9-41
	android:launchMode
		ADDED from /Users/pramodyadav/Documents/Code/reactNative/Test/Mdoc_SIT/android/app/src/main/AndroidManifest.xml:17:9-40
	android:windowSoftInputMode
		ADDED from /Users/pramodyadav/Documents/Code/reactNative/Test/Mdoc_SIT/android/app/src/main/AndroidManifest.xml:18:9-51
	android:configChanges
		ADDED from /Users/pramodyadav/Documents/Code/reactNative/Test/Mdoc_SIT/android/app/src/main/AndroidManifest.xml:16:9-86
	android:name
		ADDED from /Users/pramodyadav/Documents/Code/reactNative/Test/Mdoc_SIT/android/app/src/main/AndroidManifest.xml:14:9-37
intent-filter#action:name:android.intent.action.MAIN+category:name:android.intent.category.LAUNCHER
ADDED from /Users/pramodyadav/Documents/Code/reactNative/Test/Mdoc_SIT/android/app/src/main/AndroidManifest.xml:19:9-22:25
action#android.intent.action.MAIN
ADDED from /Users/pramodyadav/Documents/Code/reactNative/Test/Mdoc_SIT/android/app/src/main/AndroidManifest.xml:20:13-65
	android:name
		ADDED from /Users/pramodyadav/Documents/Code/reactNative/Test/Mdoc_SIT/android/app/src/main/AndroidManifest.xml:20:21-62
category#android.intent.category.LAUNCHER
ADDED from /Users/pramodyadav/Documents/Code/reactNative/Test/Mdoc_SIT/android/app/src/main/AndroidManifest.xml:21:13-73
	android:name
		ADDED from /Users/pramodyadav/Documents/Code/reactNative/Test/Mdoc_SIT/android/app/src/main/AndroidManifest.xml:21:23-70
uses-sdk
INJECTED from /Users/pramodyadav/Documents/Code/reactNative/Test/Mdoc_SIT/android/app/src/main/AndroidManifest.xml reason: use-sdk injection requested
INJECTED from /Users/pramodyadav/Documents/Code/reactNative/Test/Mdoc_SIT/android/app/src/main/AndroidManifest.xml
INJECTED from /Users/pramodyadav/Documents/Code/reactNative/Test/Mdoc_SIT/android/app/src/main/AndroidManifest.xml
MERGED from [com.facebook.flipper:flipper:0.75.1] /Users/pramodyadav/.gradle/caches/transforms-2/files-2.1/a8f6015f96666ab8d93bfe5b64998bc8/jetified-flipper-0.75.1/AndroidManifest.xml:11:5-13:41
MERGED from [com.facebook.flipper:flipper:0.75.1] /Users/pramodyadav/.gradle/caches/transforms-2/files-2.1/a8f6015f96666ab8d93bfe5b64998bc8/jetified-flipper-0.75.1/AndroidManifest.xml:11:5-13:41
MERGED from [com.facebook.flipper:flipper-network-plugin:0.75.1] /Users/pramodyadav/.gradle/caches/transforms-2/files-2.1/d8279ebfbcca51b68586de1b9bc17210/jetified-flipper-network-plugin-0.75.1/AndroidManifest.xml:11:5-13:41
MERGED from [com.facebook.flipper:flipper-network-plugin:0.75.1] /Users/pramodyadav/.gradle/caches/transforms-2/files-2.1/d8279ebfbcca51b68586de1b9bc17210/jetified-flipper-network-plugin-0.75.1/AndroidManifest.xml:11:5-13:41
MERGED from [com.facebook.flipper:flipper-fresco-plugin:0.75.1] /Users/pramodyadav/.gradle/caches/transforms-2/files-2.1/13e0ca18817a9e59a8c4a94704ec8c3c/jetified-flipper-fresco-plugin-0.75.1/AndroidManifest.xml:11:5-13:41
MERGED from [com.facebook.flipper:flipper-fresco-plugin:0.75.1] /Users/pramodyadav/.gradle/caches/transforms-2/files-2.1/13e0ca18817a9e59a8c4a94704ec8c3c/jetified-flipper-fresco-plugin-0.75.1/AndroidManifest.xml:11:5-13:41
MERGED from [:react-native-community_async-storage] /Users/pramodyadav/Documents/Code/reactNative/Test/Mdoc_SIT/node_modules/@react-native-community/async-storage/android/build/intermediates/library_manifest/debug/AndroidManifest.xml:5:5-7:41
MERGED from [:react-native-community_async-storage] /Users/pramodyadav/Documents/Code/reactNative/Test/Mdoc_SIT/node_modules/@react-native-community/async-storage/android/build/intermediates/library_manifest/debug/AndroidManifest.xml:5:5-7:41
MERGED from [:react-native-community_masked-view] /Users/pramodyadav/Documents/Code/reactNative/Test/Mdoc_SIT/node_modules/@react-native-community/masked-view/android/build/intermediates/library_manifest/debug/AndroidManifest.xml:5:5-7:41
MERGED from [:react-native-community_masked-view] /Users/pramodyadav/Documents/Code/reactNative/Test/Mdoc_SIT/node_modules/@react-native-community/masked-view/android/build/intermediates/library_manifest/debug/AndroidManifest.xml:5:5-7:41
MERGED from [:react-native-community_netinfo] /Users/pramodyadav/Documents/Code/reactNative/Test/Mdoc_SIT/node_modules/@react-native-community/netinfo/android/build/intermediates/library_manifest/debug/AndroidManifest.xml:5:5-7:41
MERGED from [:react-native-community_netinfo] /Users/pramodyadav/Documents/Code/reactNative/Test/Mdoc_SIT/node_modules/@react-native-community/netinfo/android/build/intermediates/library_manifest/debug/AndroidManifest.xml:5:5-7:41
MERGED from [:react-native-config] /Users/pramodyadav/Documents/Code/reactNative/Test/Mdoc_SIT/node_modules/react-native-config/android/build/intermediates/library_manifest/debug/AndroidManifest.xml:7:5-9:41
MERGED from [:react-native-config] /Users/pramodyadav/Documents/Code/reactNative/Test/Mdoc_SIT/node_modules/react-native-config/android/build/intermediates/library_manifest/debug/AndroidManifest.xml:7:5-9:41
MERGED from [:react-native-device-info] /Users/pramodyadav/Documents/Code/reactNative/Test/Mdoc_SIT/node_modules/react-native-device-info/android/build/intermediates/library_manifest/debug/AndroidManifest.xml:7:5-9:41
MERGED from [:react-native-device-info] /Users/pramodyadav/Documents/Code/reactNative/Test/Mdoc_SIT/node_modules/react-native-device-info/android/build/intermediates/library_manifest/debug/AndroidManifest.xml:7:5-9:41
MERGED from [:react-native-fast-image] /Users/pramodyadav/Documents/Code/reactNative/Test/Mdoc_SIT/node_modules/react-native-fast-image/android/build/intermediates/library_manifest/debug/AndroidManifest.xml:7:5-9:41
MERGED from [:react-native-fast-image] /Users/pramodyadav/Documents/Code/reactNative/Test/Mdoc_SIT/node_modules/react-native-fast-image/android/build/intermediates/library_manifest/debug/AndroidManifest.xml:7:5-9:41
MERGED from [:react-native-gesture-handler] /Users/pramodyadav/Documents/Code/reactNative/Test/Mdoc_SIT/node_modules/react-native-gesture-handler/android/build/intermediates/library_manifest/debug/AndroidManifest.xml:7:5-9:41
MERGED from [:react-native-gesture-handler] /Users/pramodyadav/Documents/Code/reactNative/Test/Mdoc_SIT/node_modules/react-native-gesture-handler/android/build/intermediates/library_manifest/debug/AndroidManifest.xml:7:5-9:41
MERGED from [:react-native-safe-area-context] /Users/pramodyadav/Documents/Code/reactNative/Test/Mdoc_SIT/node_modules/react-native-safe-area-context/android/build/intermediates/library_manifest/debug/AndroidManifest.xml:5:5-7:41
MERGED from [:react-native-safe-area-context] /Users/pramodyadav/Documents/Code/reactNative/Test/Mdoc_SIT/node_modules/react-native-safe-area-context/android/build/intermediates/library_manifest/debug/AndroidManifest.xml:5:5-7:41
MERGED from [:react-native-screens] /Users/pramodyadav/Documents/Code/reactNative/Test/Mdoc_SIT/node_modules/react-native-screens/android/build/intermediates/library_manifest/debug/AndroidManifest.xml:7:5-9:41
MERGED from [:react-native-screens] /Users/pramodyadav/Documents/Code/reactNative/Test/Mdoc_SIT/node_modules/react-native-screens/android/build/intermediates/library_manifest/debug/AndroidManifest.xml:7:5-9:41
MERGED from [:react-native-vector-icons] /Users/pramodyadav/Documents/Code/reactNative/Test/Mdoc_SIT/node_modules/react-native-vector-icons/android/build/intermediates/library_manifest/debug/AndroidManifest.xml:7:5-9:41
MERGED from [:react-native-vector-icons] /Users/pramodyadav/Documents/Code/reactNative/Test/Mdoc_SIT/node_modules/react-native-vector-icons/android/build/intermediates/library_manifest/debug/AndroidManifest.xml:7:5-9:41
MERGED from [:react-native-webview] /Users/pramodyadav/Documents/Code/reactNative/Test/Mdoc_SIT/node_modules/react-native-webview/android/build/intermediates/library_manifest/debug/AndroidManifest.xml:7:5-9:41
MERGED from [:react-native-webview] /Users/pramodyadav/Documents/Code/reactNative/Test/Mdoc_SIT/node_modules/react-native-webview/android/build/intermediates/library_manifest/debug/AndroidManifest.xml:7:5-9:41
MERGED from [com.facebook.react:react-native:0.64.0] /Users/pramodyadav/.gradle/caches/transforms-2/files-2.1/a56511b037fb04f244c71df782e66ef7/jetified-react-native-0.64.0/AndroidManifest.xml:7:5-9:41
MERGED from [com.facebook.react:react-native:0.64.0] /Users/pramodyadav/.gradle/caches/transforms-2/files-2.1/a56511b037fb04f244c71df782e66ef7/jetified-react-native-0.64.0/AndroidManifest.xml:7:5-9:41
MERGED from [androidx.swiperefreshlayout:swiperefreshlayout:1.0.0] /Users/pramodyadav/.gradle/caches/transforms-2/files-2.1/5c64f35c4f864d4cd139ccbbff91ceb9/swiperefreshlayout-1.0.0/AndroidManifest.xml:20:5-44
MERGED from [androidx.swiperefreshlayout:swiperefreshlayout:1.0.0] /Users/pramodyadav/.gradle/caches/transforms-2/files-2.1/5c64f35c4f864d4cd139ccbbff91ceb9/swiperefreshlayout-1.0.0/AndroidManifest.xml:20:5-44
MERGED from [org.webkit:android-jsc:r245459] /Users/pramodyadav/.gradle/caches/transforms-2/files-2.1/65337ca8c0783fc27be60d476a5f6b75/jetified-android-jsc-r245459/AndroidManifest.xml:7:5-9:41
MERGED from [org.webkit:android-jsc:r245459] /Users/pramodyadav/.gradle/caches/transforms-2/files-2.1/65337ca8c0783fc27be60d476a5f6b75/jetified-android-jsc-r245459/AndroidManifest.xml:7:5-9:41
MERGED from [:react-native-reanimated] /Users/pramodyadav/Documents/Code/reactNative/Test/Mdoc_SIT/node_modules/react-native-reanimated/android/build/.transforms/2f2f5f4c70fe1f5327bb31f187dd0465/jetified-react-native-reanimated-64/AndroidManifest.xml:7:5-9:41
MERGED from [:react-native-reanimated] /Users/pramodyadav/Documents/Code/reactNative/Test/Mdoc_SIT/node_modules/react-native-reanimated/android/build/.transforms/2f2f5f4c70fe1f5327bb31f187dd0465/jetified-react-native-reanimated-64/AndroidManifest.xml:7:5-9:41
MERGED from [com.facebook.fresco:flipper:2.2.0] /Users/pramodyadav/.gradle/caches/transforms-2/files-2.1/84c6a932a42f35f9b796c5d67e6eb742/jetified-flipper-2.2.0/AndroidManifest.xml:5:5-7:41
MERGED from [com.facebook.fresco:flipper:2.2.0] /Users/pramodyadav/.gradle/caches/transforms-2/files-2.1/84c6a932a42f35f9b796c5d67e6eb742/jetified-flipper-2.2.0/AndroidManifest.xml:5:5-7:41
MERGED from [com.facebook.fresco:stetho:2.2.0] /Users/pramodyadav/.gradle/caches/transforms-2/files-2.1/5f2c193a45b1b439ec8f5a8edcb37f33/jetified-stetho-2.2.0/AndroidManifest.xml:5:5-7:41
MERGED from [com.facebook.fresco:stetho:2.2.0] /Users/pramodyadav/.gradle/caches/transforms-2/files-2.1/5f2c193a45b1b439ec8f5a8edcb37f33/jetified-stetho-2.2.0/AndroidManifest.xml:5:5-7:41
MERGED from [com.facebook.fresco:fresco:2.2.0] /Users/pramodyadav/.gradle/caches/transforms-2/files-2.1/336cee0c87f467fe6bfb36840b0630b2/jetified-fresco-2.2.0/AndroidManifest.xml:5:5-7:41
MERGED from [com.facebook.fresco:fresco:2.2.0] /Users/pramodyadav/.gradle/caches/transforms-2/files-2.1/336cee0c87f467fe6bfb36840b0630b2/jetified-fresco-2.2.0/AndroidManifest.xml:5:5-7:41
MERGED from [com.facebook.fresco:drawee:2.2.0] /Users/pramodyadav/.gradle/caches/transforms-2/files-2.1/8850ed829d25245e8497182323bc73d2/jetified-drawee-2.2.0/AndroidManifest.xml:5:5-7:41
MERGED from [com.facebook.fresco:drawee:2.2.0] /Users/pramodyadav/.gradle/caches/transforms-2/files-2.1/8850ed829d25245e8497182323bc73d2/jetified-drawee-2.2.0/AndroidManifest.xml:5:5-7:41
MERGED from [com.facebook.fresco:nativeimagefilters:2.2.0] /Users/pramodyadav/.gradle/caches/transforms-2/files-2.1/cedca5e04b0c20fa79ac1887f71f3325/jetified-nativeimagefilters-2.2.0/AndroidManifest.xml:5:5-7:41
MERGED from [com.facebook.fresco:nativeimagefilters:2.2.0] /Users/pramodyadav/.gradle/caches/transforms-2/files-2.1/cedca5e04b0c20fa79ac1887f71f3325/jetified-nativeimagefilters-2.2.0/AndroidManifest.xml:5:5-7:41
MERGED from [com.facebook.fresco:memory-type-native:2.2.0] /Users/pramodyadav/.gradle/caches/transforms-2/files-2.1/e5db14b71da4d91c0ca7d2ee268e707a/jetified-memory-type-native-2.2.0/AndroidManifest.xml:5:5-7:41
MERGED from [com.facebook.fresco:memory-type-native:2.2.0] /Users/pramodyadav/.gradle/caches/transforms-2/files-2.1/e5db14b71da4d91c0ca7d2ee268e707a/jetified-memory-type-native-2.2.0/AndroidManifest.xml:5:5-7:41
MERGED from [com.facebook.fresco:memory-type-java:2.2.0] /Users/pramodyadav/.gradle/caches/transforms-2/files-2.1/3c0394800bb3c89c17ec23de03c5f2ca/jetified-memory-type-java-2.2.0/AndroidManifest.xml:5:5-7:41
MERGED from [com.facebook.fresco:memory-type-java:2.2.0] /Users/pramodyadav/.gradle/caches/transforms-2/files-2.1/3c0394800bb3c89c17ec23de03c5f2ca/jetified-memory-type-java-2.2.0/AndroidManifest.xml:5:5-7:41
MERGED from [com.facebook.fresco:imagepipeline-native:2.2.0] /Users/pramodyadav/.gradle/caches/transforms-2/files-2.1/cf4b730f71bf97441bdf4ebe8cfeeb88/jetified-imagepipeline-native-2.2.0/AndroidManifest.xml:5:5-7:41
MERGED from [com.facebook.fresco:imagepipeline-native:2.2.0] /Users/pramodyadav/.gradle/caches/transforms-2/files-2.1/cf4b730f71bf97441bdf4ebe8cfeeb88/jetified-imagepipeline-native-2.2.0/AndroidManifest.xml:5:5-7:41
MERGED from [com.facebook.fresco:soloader:2.2.0] /Users/pramodyadav/.gradle/caches/transforms-2/files-2.1/c35a46a0a862651f1e0a89250dcee30d/jetified-soloader-2.2.0/AndroidManifest.xml:5:5-7:41
MERGED from [com.facebook.fresco:soloader:2.2.0] /Users/pramodyadav/.gradle/caches/transforms-2/files-2.1/c35a46a0a862651f1e0a89250dcee30d/jetified-soloader-2.2.0/AndroidManifest.xml:5:5-7:41
MERGED from [com.facebook.soloader:soloader:0.10.1] /Users/pramodyadav/.gradle/caches/transforms-2/files-2.1/5fb5c0c623111e89d0cb2cc6cbe55df8/jetified-soloader-0.10.1/AndroidManifest.xml:7:5-9:41
MERGED from [com.facebook.soloader:soloader:0.10.1] /Users/pramodyadav/.gradle/caches/transforms-2/files-2.1/5fb5c0c623111e89d0cb2cc6cbe55df8/jetified-soloader-0.10.1/AndroidManifest.xml:7:5-9:41
MERGED from [com.google.android.material:material:1.1.0] /Users/pramodyadav/.gradle/caches/transforms-2/files-2.1/747f53e70e3372703b3570ac3dfbfb03/material-1.1.0/AndroidManifest.xml:20:5-44
MERGED from [com.google.android.material:material:1.1.0] /Users/pramodyadav/.gradle/caches/transforms-2/files-2.1/747f53e70e3372703b3570ac3dfbfb03/material-1.1.0/AndroidManifest.xml:20:5-44
MERGED from [androidx.appcompat:appcompat:1.1.0] /Users/pramodyadav/.gradle/caches/transforms-2/files-2.1/d14dbad7340cad958a2e361a440b498d/appcompat-1.1.0/AndroidManifest.xml:20:5-22:41
MERGED from [androidx.appcompat:appcompat:1.1.0] /Users/pramodyadav/.gradle/caches/transforms-2/files-2.1/d14dbad7340cad958a2e361a440b498d/appcompat-1.1.0/AndroidManifest.xml:20:5-22:41
MERGED from [androidx.sqlite:sqlite-framework:2.1.0] /Users/pramodyadav/.gradle/caches/transforms-2/files-2.1/ce476dc2f1f7d59691ad234de1ec2fb1/sqlite-framework-2.1.0/AndroidManifest.xml:20:5-22:41
MERGED from [androidx.sqlite:sqlite-framework:2.1.0] /Users/pramodyadav/.gradle/caches/transforms-2/files-2.1/ce476dc2f1f7d59691ad234de1ec2fb1/sqlite-framework-2.1.0/AndroidManifest.xml:20:5-22:41
MERGED from [com.facebook.fresco:imagepipeline-okhttp3:2.0.0] /Users/pramodyadav/.gradle/caches/transforms-2/files-2.1/f66a3370e9e4f8cb0ae0c6936c538c41/jetified-imagepipeline-okhttp3-2.0.0/AndroidManifest.xml:5:5-7:41
MERGED from [com.facebook.fresco:imagepipeline-okhttp3:2.0.0] /Users/pramodyadav/.gradle/caches/transforms-2/files-2.1/f66a3370e9e4f8cb0ae0c6936c538c41/jetified-imagepipeline-okhttp3-2.0.0/AndroidManifest.xml:5:5-7:41
MERGED from [com.facebook.fresco:memory-type-ashmem:2.2.0] /Users/pramodyadav/.gradle/caches/transforms-2/files-2.1/fc37ff7af2e3c5de8e592a9550a0df07/jetified-memory-type-ashmem-2.2.0/AndroidManifest.xml:5:5-7:41
MERGED from [com.facebook.fresco:memory-type-ashmem:2.2.0] /Users/pramodyadav/.gradle/caches/transforms-2/files-2.1/fc37ff7af2e3c5de8e592a9550a0df07/jetified-memory-type-ashmem-2.2.0/AndroidManifest.xml:5:5-7:41
MERGED from [com.facebook.fresco:imagepipeline:2.2.0] /Users/pramodyadav/.gradle/caches/transforms-2/files-2.1/cda5d9a1a957ef402e55e5ba5c5bfd6d/jetified-imagepipeline-2.2.0/AndroidManifest.xml:5:5-7:41
MERGED from [com.facebook.fresco:imagepipeline:2.2.0] /Users/pramodyadav/.gradle/caches/transforms-2/files-2.1/cda5d9a1a957ef402e55e5ba5c5bfd6d/jetified-imagepipeline-2.2.0/AndroidManifest.xml:5:5-7:41
MERGED from [com.facebook.fresco:nativeimagetranscoder:2.2.0] /Users/pramodyadav/.gradle/caches/transforms-2/files-2.1/8f540c10f5114d05b8ee24db3e19e1f8/jetified-nativeimagetranscoder-2.2.0/AndroidManifest.xml:5:5-7:41
MERGED from [com.facebook.fresco:nativeimagetranscoder:2.2.0] /Users/pramodyadav/.gradle/caches/transforms-2/files-2.1/8f540c10f5114d05b8ee24db3e19e1f8/jetified-nativeimagetranscoder-2.2.0/AndroidManifest.xml:5:5-7:41
MERGED from [com.facebook.fresco:imagepipeline-base:2.2.0] /Users/pramodyadav/.gradle/caches/transforms-2/files-2.1/b51f59890c1c9ada8eed6d21cecc075e/jetified-imagepipeline-base-2.2.0/AndroidManifest.xml:5:5-7:41
MERGED from [com.facebook.fresco:imagepipeline-base:2.2.0] /Users/pramodyadav/.gradle/caches/transforms-2/files-2.1/b51f59890c1c9ada8eed6d21cecc075e/jetified-imagepipeline-base-2.2.0/AndroidManifest.xml:5:5-7:41
MERGED from [com.github.bumptech.glide:okhttp3-integration:4.11.0] /Users/pramodyadav/.gradle/caches/transforms-2/files-2.1/a04caada1575963807067fecab4ddb7f/jetified-okhttp3-integration-4.11.0/AndroidManifest.xml:6:5-8:41
MERGED from [com.github.bumptech.glide:okhttp3-integration:4.11.0] /Users/pramodyadav/.gradle/caches/transforms-2/files-2.1/a04caada1575963807067fecab4ddb7f/jetified-okhttp3-integration-4.11.0/AndroidManifest.xml:6:5-8:41
MERGED from [com.github.bumptech.glide:glide:4.11.0] /Users/pramodyadav/.gradle/caches/transforms-2/files-2.1/56f4cf96c56e3c6b85582297d2e8851f/jetified-glide-4.11.0/AndroidManifest.xml:6:5-8:41
MERGED from [com.github.bumptech.glide:glide:4.11.0] /Users/pramodyadav/.gradle/caches/transforms-2/files-2.1/56f4cf96c56e3c6b85582297d2e8851f/jetified-glide-4.11.0/AndroidManifest.xml:6:5-8:41
MERGED from [androidx.appcompat:appcompat-resources:1.1.0] /Users/pramodyadav/.gradle/caches/transforms-2/files-2.1/baebfc24ee3e9d675a4614c1f27f118a/jetified-appcompat-resources-1.1.0/AndroidManifest.xml:20:5-22:41
MERGED from [androidx.appcompat:appcompat-resources:1.1.0] /Users/pramodyadav/.gradle/caches/transforms-2/files-2.1/baebfc24ee3e9d675a4614c1f27f118a/jetified-appcompat-resources-1.1.0/AndroidManifest.xml:20:5-22:41
MERGED from [androidx.vectordrawable:vectordrawable-animated:1.1.0] /Users/pramodyadav/.gradle/caches/transforms-2/files-2.1/2ee35bfe9d2e9019f071c4a047a96db2/vectordrawable-animated-1.1.0/AndroidManifest.xml:20:5-22:41
MERGED from [androidx.vectordrawable:vectordrawable-animated:1.1.0] /Users/pramodyadav/.gradle/caches/transforms-2/files-2.1/2ee35bfe9d2e9019f071c4a047a96db2/vectordrawable-animated-1.1.0/AndroidManifest.xml:20:5-22:41
MERGED from [androidx.interpolator:interpolator:1.0.0] /Users/pramodyadav/.gradle/caches/transforms-2/files-2.1/6e0f82970a69a6b386ee45a08ac362fe/interpolator-1.0.0/AndroidManifest.xml:20:5-44
MERGED from [androidx.interpolator:interpolator:1.0.0] /Users/pramodyadav/.gradle/caches/transforms-2/files-2.1/6e0f82970a69a6b386ee45a08ac362fe/interpolator-1.0.0/AndroidManifest.xml:20:5-44
MERGED from [com.google.android.gms:play-services-iid:17.0.0] /Users/pramodyadav/.gradle/caches/transforms-2/files-2.1/e18b3ef1604371e7e10a2586fcf5f032/jetified-play-services-iid-17.0.0/AndroidManifest.xml:20:5-44
MERGED from [com.google.android.gms:play-services-iid:17.0.0] /Users/pramodyadav/.gradle/caches/transforms-2/files-2.1/e18b3ef1604371e7e10a2586fcf5f032/jetified-play-services-iid-17.0.0/AndroidManifest.xml:20:5-44
MERGED from [com.google.android.gms:play-services-base:17.0.0] /Users/pramodyadav/.gradle/caches/transforms-2/files-2.1/2631375de80937c90cd3a1032ab35871/jetified-play-services-base-17.0.0/AndroidManifest.xml:20:5-44
MERGED from [com.google.android.gms:play-services-base:17.0.0] /Users/pramodyadav/.gradle/caches/transforms-2/files-2.1/2631375de80937c90cd3a1032ab35871/jetified-play-services-base-17.0.0/AndroidManifest.xml:20:5-44
MERGED from [com.google.android.gms:play-services-stats:17.0.0] /Users/pramodyadav/.gradle/caches/transforms-2/files-2.1/e1bd2db1feee5d3ba4c2e9fd0c079649/jetified-play-services-stats-17.0.0/AndroidManifest.xml:5:5-44
MERGED from [com.google.android.gms:play-services-stats:17.0.0] /Users/pramodyadav/.gradle/caches/transforms-2/files-2.1/e1bd2db1feee5d3ba4c2e9fd0c079649/jetified-play-services-stats-17.0.0/AndroidManifest.xml:5:5-44
MERGED from [com.google.android.gms:play-services-tasks:17.0.0] /Users/pramodyadav/.gradle/caches/transforms-2/files-2.1/b7a1c6e780b5901c5c6ba597df670b7d/jetified-play-services-tasks-17.0.0/AndroidManifest.xml:5:5-44
MERGED from [com.google.android.gms:play-services-tasks:17.0.0] /Users/pramodyadav/.gradle/caches/transforms-2/files-2.1/b7a1c6e780b5901c5c6ba597df670b7d/jetified-play-services-tasks-17.0.0/AndroidManifest.xml:5:5-44
MERGED from [com.google.android.gms:play-services-basement:17.0.0] /Users/pramodyadav/.gradle/caches/transforms-2/files-2.1/dcffa74d8d015470a7eae32b9eb648c7/jetified-play-services-basement-17.0.0/AndroidManifest.xml:20:5-44
MERGED from [com.google.android.gms:play-services-basement:17.0.0] /Users/pramodyadav/.gradle/caches/transforms-2/files-2.1/dcffa74d8d015470a7eae32b9eb648c7/jetified-play-services-basement-17.0.0/AndroidManifest.xml:20:5-44
MERGED from [androidx.viewpager2:viewpager2:1.0.0] /Users/pramodyadav/.gradle/caches/transforms-2/files-2.1/803d31b2df2f8d968e6cb7c3ffa37ef9/jetified-viewpager2-1.0.0/AndroidManifest.xml:20:5-22:41
MERGED from [androidx.viewpager2:viewpager2:1.0.0] /Users/pramodyadav/.gradle/caches/transforms-2/files-2.1/803d31b2df2f8d968e6cb7c3ffa37ef9/jetified-viewpager2-1.0.0/AndroidManifest.xml:20:5-22:41
MERGED from [androidx.fragment:fragment:1.2.1] /Users/pramodyadav/.gradle/caches/transforms-2/files-2.1/5e5754defa7ec1b661ffd11a17838c67/fragment-1.2.1/AndroidManifest.xml:20:5-22:41
MERGED from [androidx.fragment:fragment:1.2.1] /Users/pramodyadav/.gradle/caches/transforms-2/files-2.1/5e5754defa7ec1b661ffd11a17838c67/fragment-1.2.1/AndroidManifest.xml:20:5-22:41
MERGED from [androidx.coordinatorlayout:coordinatorlayout:1.1.0] /Users/pramodyadav/.gradle/caches/transforms-2/files-2.1/3c1c25210c9523b781f68f6e5260d398/coordinatorlayout-1.1.0/AndroidManifest.xml:20:5-22:41
MERGED from [androidx.coordinatorlayout:coordinatorlayout:1.1.0] /Users/pramodyadav/.gradle/caches/transforms-2/files-2.1/3c1c25210c9523b781f68f6e5260d398/coordinatorlayout-1.1.0/AndroidManifest.xml:20:5-22:41
MERGED from [androidx.drawerlayout:drawerlayout:1.0.0] /Users/pramodyadav/.gradle/caches/transforms-2/files-2.1/22a5d9f52d495a432176451a4c4ba982/drawerlayout-1.0.0/AndroidManifest.xml:20:5-44
MERGED from [androidx.drawerlayout:drawerlayout:1.0.0] /Users/pramodyadav/.gradle/caches/transforms-2/files-2.1/22a5d9f52d495a432176451a4c4ba982/drawerlayout-1.0.0/AndroidManifest.xml:20:5-44
MERGED from [androidx.viewpager:viewpager:1.0.0] /Users/pramodyadav/.gradle/caches/transforms-2/files-2.1/2f70304b103eacfab05dbe55739e869f/viewpager-1.0.0/AndroidManifest.xml:20:5-44
MERGED from [androidx.viewpager:viewpager:1.0.0] /Users/pramodyadav/.gradle/caches/transforms-2/files-2.1/2f70304b103eacfab05dbe55739e869f/viewpager-1.0.0/AndroidManifest.xml:20:5-44
MERGED from [androidx.legacy:legacy-support-core-utils:1.0.0] /Users/pramodyadav/.gradle/caches/transforms-2/files-2.1/154602205569c6147c1ab4260dd9d425/legacy-support-core-utils-1.0.0/AndroidManifest.xml:20:5-44
MERGED from [androidx.legacy:legacy-support-core-utils:1.0.0] /Users/pramodyadav/.gradle/caches/transforms-2/files-2.1/154602205569c6147c1ab4260dd9d425/legacy-support-core-utils-1.0.0/AndroidManifest.xml:20:5-44
MERGED from [androidx.loader:loader:1.0.0] /Users/pramodyadav/.gradle/caches/transforms-2/files-2.1/49dee3543bc65746b6bba9f83aa0b18a/loader-1.0.0/AndroidManifest.xml:20:5-44
MERGED from [androidx.loader:loader:1.0.0] /Users/pramodyadav/.gradle/caches/transforms-2/files-2.1/49dee3543bc65746b6bba9f83aa0b18a/loader-1.0.0/AndroidManifest.xml:20:5-44
MERGED from [androidx.activity:activity:1.1.0] /Users/pramodyadav/.gradle/caches/transforms-2/files-2.1/412f4e60090d6c7e949274f12fef4b1d/jetified-activity-1.1.0/AndroidManifest.xml:20:5-22:41
MERGED from [androidx.activity:activity:1.1.0] /Users/pramodyadav/.gradle/caches/transforms-2/files-2.1/412f4e60090d6c7e949274f12fef4b1d/jetified-activity-1.1.0/AndroidManifest.xml:20:5-22:41
MERGED from [androidx.recyclerview:recyclerview:1.1.0] /Users/pramodyadav/.gradle/caches/transforms-2/files-2.1/c38f0dcdb4eabb88f8961812937ce545/recyclerview-1.1.0/AndroidManifest.xml:20:5-22:41
MERGED from [androidx.recyclerview:recyclerview:1.1.0] /Users/pramodyadav/.gradle/caches/transforms-2/files-2.1/c38f0dcdb4eabb88f8961812937ce545/recyclerview-1.1.0/AndroidManifest.xml:20:5-22:41
MERGED from [androidx.customview:customview:1.0.0] /Users/pramodyadav/.gradle/caches/transforms-2/files-2.1/86cf751735e9e9dd0416cce35c4a71a1/customview-1.0.0/AndroidManifest.xml:20:5-44
MERGED from [androidx.customview:customview:1.0.0] /Users/pramodyadav/.gradle/caches/transforms-2/files-2.1/86cf751735e9e9dd0416cce35c4a71a1/customview-1.0.0/AndroidManifest.xml:20:5-44
MERGED from [androidx.transition:transition:1.2.0] /Users/pramodyadav/.gradle/caches/transforms-2/files-2.1/ae1a1dddf9cea612695d8157e2ff38cd/transition-1.2.0/AndroidManifest.xml:20:5-22:41
MERGED from [androidx.transition:transition:1.2.0] /Users/pramodyadav/.gradle/caches/transforms-2/files-2.1/ae1a1dddf9cea612695d8157e2ff38cd/transition-1.2.0/AndroidManifest.xml:20:5-22:41
MERGED from [androidx.vectordrawable:vectordrawable:1.1.0] /Users/pramodyadav/.gradle/caches/transforms-2/files-2.1/361553562ce35cf8cf447832c4a7d1ec/vectordrawable-1.1.0/AndroidManifest.xml:20:5-22:41
MERGED from [androidx.vectordrawable:vectordrawable:1.1.0] /Users/pramodyadav/.gradle/caches/transforms-2/files-2.1/361553562ce35cf8cf447832c4a7d1ec/vectordrawable-1.1.0/AndroidManifest.xml:20:5-22:41
MERGED from [androidx.core:core:1.3.2] /Users/pramodyadav/.gradle/caches/transforms-2/files-2.1/f03ec885b8fabdebb4f0d3bbade5009e/core-1.3.2/AndroidManifest.xml:20:5-22:41
MERGED from [androidx.core:core:1.3.2] /Users/pramodyadav/.gradle/caches/transforms-2/files-2.1/f03ec885b8fabdebb4f0d3bbade5009e/core-1.3.2/AndroidManifest.xml:20:5-22:41
MERGED from [androidx.cursoradapter:cursoradapter:1.0.0] /Users/pramodyadav/.gradle/caches/transforms-2/files-2.1/bae4382a703142a8f82a100a412243f1/cursoradapter-1.0.0/AndroidManifest.xml:20:5-44
MERGED from [androidx.cursoradapter:cursoradapter:1.0.0] /Users/pramodyadav/.gradle/caches/transforms-2/files-2.1/bae4382a703142a8f82a100a412243f1/cursoradapter-1.0.0/AndroidManifest.xml:20:5-44
MERGED from [androidx.sqlite:sqlite:2.1.0] /Users/pramodyadav/.gradle/caches/transforms-2/files-2.1/74153744c3b76afb34d0c28a686a981b/sqlite-2.1.0/AndroidManifest.xml:20:5-22:41
MERGED from [androidx.sqlite:sqlite:2.1.0] /Users/pramodyadav/.gradle/caches/transforms-2/files-2.1/74153744c3b76afb34d0c28a686a981b/sqlite-2.1.0/AndroidManifest.xml:20:5-22:41
MERGED from [androidx.versionedparcelable:versionedparcelable:1.1.0] /Users/pramodyadav/.gradle/caches/transforms-2/files-2.1/af9af86a2035b10a0514f89f66cf8a9a/versionedparcelable-1.1.0/AndroidManifest.xml:20:5-22:41
MERGED from [androidx.versionedparcelable:versionedparcelable:1.1.0] /Users/pramodyadav/.gradle/caches/transforms-2/files-2.1/af9af86a2035b10a0514f89f66cf8a9a/versionedparcelable-1.1.0/AndroidManifest.xml:20:5-22:41
MERGED from [com.github.bumptech.glide:gifdecoder:4.11.0] /Users/pramodyadav/.gradle/caches/transforms-2/files-2.1/f796ac2056ba102e7ed64f11fdeee34b/jetified-gifdecoder-4.11.0/AndroidManifest.xml:5:5-7:41
MERGED from [com.github.bumptech.glide:gifdecoder:4.11.0] /Users/pramodyadav/.gradle/caches/transforms-2/files-2.1/f796ac2056ba102e7ed64f11fdeee34b/jetified-gifdecoder-4.11.0/AndroidManifest.xml:5:5-7:41
MERGED from [androidx.exifinterface:exifinterface:1.0.0] /Users/pramodyadav/.gradle/caches/transforms-2/files-2.1/f87cc3413733036af81d240f8b8c99f4/exifinterface-1.0.0/AndroidManifest.xml:20:5-44
MERGED from [androidx.exifinterface:exifinterface:1.0.0] /Users/pramodyadav/.gradle/caches/transforms-2/files-2.1/f87cc3413733036af81d240f8b8c99f4/exifinterface-1.0.0/AndroidManifest.xml:20:5-44
MERGED from [androidx.lifecycle:lifecycle-viewmodel-savedstate:2.2.0] /Users/pramodyadav/.gradle/caches/transforms-2/files-2.1/cbff631e500aff82164944184b49a648/jetified-lifecycle-viewmodel-savedstate-2.2.0/AndroidManifest.xml:20:5-22:41
MERGED from [androidx.lifecycle:lifecycle-viewmodel-savedstate:2.2.0] /Users/pramodyadav/.gradle/caches/transforms-2/files-2.1/cbff631e500aff82164944184b49a648/jetified-lifecycle-viewmodel-savedstate-2.2.0/AndroidManifest.xml:20:5-22:41
MERGED from [androidx.lifecycle:lifecycle-viewmodel:2.2.0] /Users/pramodyadav/.gradle/caches/transforms-2/files-2.1/5af1825acc1d96709826d913b19b2820/lifecycle-viewmodel-2.2.0/AndroidManifest.xml:20:5-22:41
MERGED from [androidx.lifecycle:lifecycle-viewmodel:2.2.0] /Users/pramodyadav/.gradle/caches/transforms-2/files-2.1/5af1825acc1d96709826d913b19b2820/lifecycle-viewmodel-2.2.0/AndroidManifest.xml:20:5-22:41
MERGED from [androidx.cardview:cardview:1.0.0] /Users/pramodyadav/.gradle/caches/transforms-2/files-2.1/dcc76cd07ebcaa6166d73d461b1667fa/cardview-1.0.0/AndroidManifest.xml:20:5-44
MERGED from [androidx.cardview:cardview:1.0.0] /Users/pramodyadav/.gradle/caches/transforms-2/files-2.1/dcc76cd07ebcaa6166d73d461b1667fa/cardview-1.0.0/AndroidManifest.xml:20:5-44
MERGED from [androidx.lifecycle:lifecycle-runtime:2.2.0] /Users/pramodyadav/.gradle/caches/transforms-2/files-2.1/b37a656be7da34e79d326523a32fbcaa/lifecycle-runtime-2.2.0/AndroidManifest.xml:20:5-22:41
MERGED from [androidx.lifecycle:lifecycle-runtime:2.2.0] /Users/pramodyadav/.gradle/caches/transforms-2/files-2.1/b37a656be7da34e79d326523a32fbcaa/lifecycle-runtime-2.2.0/AndroidManifest.xml:20:5-22:41
MERGED from [androidx.savedstate:savedstate:1.0.0] /Users/pramodyadav/.gradle/caches/transforms-2/files-2.1/29e9e6ac99026fff5bb21139b2ad74ac/jetified-savedstate-1.0.0/AndroidManifest.xml:20:5-22:41
MERGED from [androidx.savedstate:savedstate:1.0.0] /Users/pramodyadav/.gradle/caches/transforms-2/files-2.1/29e9e6ac99026fff5bb21139b2ad74ac/jetified-savedstate-1.0.0/AndroidManifest.xml:20:5-22:41
MERGED from [androidx.lifecycle:lifecycle-livedata:2.0.0] /Users/pramodyadav/.gradle/caches/transforms-2/files-2.1/15faa7fdc535e832982b4615d300cb77/lifecycle-livedata-2.0.0/AndroidManifest.xml:20:5-44
MERGED from [androidx.lifecycle:lifecycle-livedata:2.0.0] /Users/pramodyadav/.gradle/caches/transforms-2/files-2.1/15faa7fdc535e832982b4615d300cb77/lifecycle-livedata-2.0.0/AndroidManifest.xml:20:5-44
MERGED from [androidx.lifecycle:lifecycle-livedata-core:2.2.0] /Users/pramodyadav/.gradle/caches/transforms-2/files-2.1/27e0ecfbdce6f985a506017f5fd54aeb/lifecycle-livedata-core-2.2.0/AndroidManifest.xml:20:5-22:41
MERGED from [androidx.lifecycle:lifecycle-livedata-core:2.2.0] /Users/pramodyadav/.gradle/caches/transforms-2/files-2.1/27e0ecfbdce6f985a506017f5fd54aeb/lifecycle-livedata-core-2.2.0/AndroidManifest.xml:20:5-22:41
MERGED from [androidx.arch.core:core-runtime:2.1.0] /Users/pramodyadav/.gradle/caches/transforms-2/files-2.1/268ebc0b2bd661fb18fff0cceeca14c7/core-runtime-2.1.0/AndroidManifest.xml:20:5-22:41
MERGED from [androidx.arch.core:core-runtime:2.1.0] /Users/pramodyadav/.gradle/caches/transforms-2/files-2.1/268ebc0b2bd661fb18fff0cceeca14c7/core-runtime-2.1.0/AndroidManifest.xml:20:5-22:41
MERGED from [androidx.documentfile:documentfile:1.0.0] /Users/pramodyadav/.gradle/caches/transforms-2/files-2.1/11ae9ec956d6bcf258c0fc60ed922820/documentfile-1.0.0/AndroidManifest.xml:20:5-44
MERGED from [androidx.documentfile:documentfile:1.0.0] /Users/pramodyadav/.gradle/caches/transforms-2/files-2.1/11ae9ec956d6bcf258c0fc60ed922820/documentfile-1.0.0/AndroidManifest.xml:20:5-44
MERGED from [androidx.localbroadcastmanager:localbroadcastmanager:1.0.0] /Users/pramodyadav/.gradle/caches/transforms-2/files-2.1/17959936f75234613fb11b8c15b12e4a/localbroadcastmanager-1.0.0/AndroidManifest.xml:20:5-44
MERGED from [androidx.localbroadcastmanager:localbroadcastmanager:1.0.0] /Users/pramodyadav/.gradle/caches/transforms-2/files-2.1/17959936f75234613fb11b8c15b12e4a/localbroadcastmanager-1.0.0/AndroidManifest.xml:20:5-44
MERGED from [androidx.print:print:1.0.0] /Users/pramodyadav/.gradle/caches/transforms-2/files-2.1/a49d8fed6e1f73515c23ded9f02890c2/print-1.0.0/AndroidManifest.xml:20:5-44
MERGED from [androidx.print:print:1.0.0] /Users/pramodyadav/.gradle/caches/transforms-2/files-2.1/a49d8fed6e1f73515c23ded9f02890c2/print-1.0.0/AndroidManifest.xml:20:5-44
MERGED from [com.android.installreferrer:installreferrer:1.1.2] /Users/pramodyadav/.gradle/caches/transforms-2/files-2.1/150d95ff2179d66a1b5aeef5973627bb/jetified-installreferrer-1.1.2/AndroidManifest.xml:5:5-7:41
MERGED from [com.android.installreferrer:installreferrer:1.1.2] /Users/pramodyadav/.gradle/caches/transforms-2/files-2.1/150d95ff2179d66a1b5aeef5973627bb/jetified-installreferrer-1.1.2/AndroidManifest.xml:5:5-7:41
MERGED from [com.facebook.fresco:fbcore:2.2.0] /Users/pramodyadav/.gradle/caches/transforms-2/files-2.1/5ff10ad0f2bea4b2419e86a549e99aac/jetified-fbcore-2.2.0/AndroidManifest.xml:5:5-7:41
MERGED from [com.facebook.fresco:fbcore:2.2.0] /Users/pramodyadav/.gradle/caches/transforms-2/files-2.1/5ff10ad0f2bea4b2419e86a549e99aac/jetified-fbcore-2.2.0/AndroidManifest.xml:5:5-7:41
MERGED from [com.facebook.fresco:ui-common:2.2.0] /Users/pramodyadav/.gradle/caches/transforms-2/files-2.1/ffdaca04e33e18187dfc99a2b0ddad3b/jetified-ui-common-2.2.0/AndroidManifest.xml:5:5-7:41
MERGED from [com.facebook.fresco:ui-common:2.2.0] /Users/pramodyadav/.gradle/caches/transforms-2/files-2.1/ffdaca04e33e18187dfc99a2b0ddad3b/jetified-ui-common-2.2.0/AndroidManifest.xml:5:5-7:41
INJECTED from /Users/pramodyadav/Documents/Code/reactNative/Test/Mdoc_SIT/android/app/src/debug/AndroidManifest.xml
INJECTED from /Users/pramodyadav/Documents/Code/reactNative/Test/Mdoc_SIT/android/app/src/debug/AndroidManifest.xml
	android:targetSdkVersion
		INJECTED from /Users/pramodyadav/Documents/Code/reactNative/Test/Mdoc_SIT/android/app/src/main/AndroidManifest.xml
		INJECTED from /Users/pramodyadav/Documents/Code/reactNative/Test/Mdoc_SIT/android/app/src/debug/AndroidManifest.xml
	android:minSdkVersion
		INJECTED from /Users/pramodyadav/Documents/Code/reactNative/Test/Mdoc_SIT/android/app/src/main/AndroidManifest.xml
		INJECTED from /Users/pramodyadav/Documents/Code/reactNative/Test/Mdoc_SIT/android/app/src/debug/AndroidManifest.xml
uses-permission#android.permission.SYSTEM_ALERT_WINDOW
ADDED from /Users/pramodyadav/Documents/Code/reactNative/Test/Mdoc_SIT/android/app/src/debug/AndroidManifest.xml:5:5-77
	android:name
		ADDED from /Users/pramodyadav/Documents/Code/reactNative/Test/Mdoc_SIT/android/app/src/debug/AndroidManifest.xml:5:22-75
activity#com.facebook.react.devsupport.DevSettingsActivity
ADDED from /Users/pramodyadav/Documents/Code/reactNative/Test/Mdoc_SIT/android/app/src/debug/AndroidManifest.xml:11:9-86
	android:name
		ADDED from /Users/pramodyadav/Documents/Code/reactNative/Test/Mdoc_SIT/android/app/src/debug/AndroidManifest.xml:11:19-83
uses-permission#android.permission.ACCESS_WIFI_STATE
ADDED from [com.facebook.flipper:flipper:0.75.1] /Users/pramodyadav/.gradle/caches/transforms-2/files-2.1/a8f6015f96666ab8d93bfe5b64998bc8/jetified-flipper-0.75.1/AndroidManifest.xml:16:5-76
MERGED from [:react-native-community_netinfo] /Users/pramodyadav/Documents/Code/reactNative/Test/Mdoc_SIT/node_modules/@react-native-community/netinfo/android/build/intermediates/library_manifest/debug/AndroidManifest.xml:10:5-76
MERGED from [:react-native-community_netinfo] /Users/pramodyadav/Documents/Code/reactNative/Test/Mdoc_SIT/node_modules/@react-native-community/netinfo/android/build/intermediates/library_manifest/debug/AndroidManifest.xml:10:5-76
	android:name
		ADDED from [com.facebook.flipper:flipper:0.75.1] /Users/pramodyadav/.gradle/caches/transforms-2/files-2.1/a8f6015f96666ab8d93bfe5b64998bc8/jetified-flipper-0.75.1/AndroidManifest.xml:16:22-73
uses-permission#android.permission.ACCESS_NETWORK_STATE
ADDED from [:react-native-community_netinfo] /Users/pramodyadav/Documents/Code/reactNative/Test/Mdoc_SIT/node_modules/@react-native-community/netinfo/android/build/intermediates/library_manifest/debug/AndroidManifest.xml:9:5-79
	android:name
		ADDED from [:react-native-community_netinfo] /Users/pramodyadav/Documents/Code/reactNative/Test/Mdoc_SIT/node_modules/@react-native-community/netinfo/android/build/intermediates/library_manifest/debug/AndroidManifest.xml:9:22-76
provider#com.reactnativecommunity.webview.RNCWebViewFileProvider
ADDED from [:react-native-webview] /Users/pramodyadav/Documents/Code/reactNative/Test/Mdoc_SIT/node_modules/react-native-webview/android/build/intermediates/library_manifest/debug/AndroidManifest.xml:12:9-20:20
	android:grantUriPermissions
		ADDED from [:react-native-webview] /Users/pramodyadav/Documents/Code/reactNative/Test/Mdoc_SIT/node_modules/react-native-webview/android/build/intermediates/library_manifest/debug/AndroidManifest.xml:16:13-47
	android:authorities
		ADDED from [:react-native-webview] /Users/pramodyadav/Documents/Code/reactNative/Test/Mdoc_SIT/node_modules/react-native-webview/android/build/intermediates/library_manifest/debug/AndroidManifest.xml:14:13-64
	android:exported
		ADDED from [:react-native-webview] /Users/pramodyadav/Documents/Code/reactNative/Test/Mdoc_SIT/node_modules/react-native-webview/android/build/intermediates/library_manifest/debug/AndroidManifest.xml:15:13-37
	android:name
		ADDED from [:react-native-webview] /Users/pramodyadav/Documents/Code/reactNative/Test/Mdoc_SIT/node_modules/react-native-webview/android/build/intermediates/library_manifest/debug/AndroidManifest.xml:13:13-83
meta-data#android.support.FILE_PROVIDER_PATHS
ADDED from [:react-native-webview] /Users/pramodyadav/Documents/Code/reactNative/Test/Mdoc_SIT/node_modules/react-native-webview/android/build/intermediates/library_manifest/debug/AndroidManifest.xml:17:13-19:63
	android:resource
		ADDED from [:react-native-webview] /Users/pramodyadav/Documents/Code/reactNative/Test/Mdoc_SIT/node_modules/react-native-webview/android/build/intermediates/library_manifest/debug/AndroidManifest.xml:19:17-60
	android:name
		ADDED from [:react-native-webview] /Users/pramodyadav/Documents/Code/reactNative/Test/Mdoc_SIT/node_modules/react-native-webview/android/build/intermediates/library_manifest/debug/AndroidManifest.xml:18:17-67
meta-data#com.bumptech.glide.integration.okhttp3.OkHttpGlideModule
ADDED from [com.github.bumptech.glide:okhttp3-integration:4.11.0] /Users/pramodyadav/.gradle/caches/transforms-2/files-2.1/a04caada1575963807067fecab4ddb7f/jetified-okhttp3-integration-4.11.0/AndroidManifest.xml:11:9-13:43
	android:value
		ADDED from [com.github.bumptech.glide:okhttp3-integration:4.11.0] /Users/pramodyadav/.gradle/caches/transforms-2/files-2.1/a04caada1575963807067fecab4ddb7f/jetified-okhttp3-integration-4.11.0/AndroidManifest.xml:13:13-40
	android:name
		ADDED from [com.github.bumptech.glide:okhttp3-integration:4.11.0] /Users/pramodyadav/.gradle/caches/transforms-2/files-2.1/a04caada1575963807067fecab4ddb7f/jetified-okhttp3-integration-4.11.0/AndroidManifest.xml:12:13-84
uses-permission#com.google.android.c2dm.permission.RECEIVE
ADDED from [com.google.android.gms:play-services-iid:17.0.0] /Users/pramodyadav/.gradle/caches/transforms-2/files-2.1/e18b3ef1604371e7e10a2586fcf5f032/jetified-play-services-iid-17.0.0/AndroidManifest.xml:23:5-82
	android:name
		ADDED from [com.google.android.gms:play-services-iid:17.0.0] /Users/pramodyadav/.gradle/caches/transforms-2/files-2.1/e18b3ef1604371e7e10a2586fcf5f032/jetified-play-services-iid-17.0.0/AndroidManifest.xml:23:22-79
activity#com.google.android.gms.common.api.GoogleApiActivity
ADDED from [com.google.android.gms:play-services-base:17.0.0] /Users/pramodyadav/.gradle/caches/transforms-2/files-2.1/2631375de80937c90cd3a1032ab35871/jetified-play-services-base-17.0.0/AndroidManifest.xml:23:9-26:75
	android:exported
		ADDED from [com.google.android.gms:play-services-base:17.0.0] /Users/pramodyadav/.gradle/caches/transforms-2/files-2.1/2631375de80937c90cd3a1032ab35871/jetified-play-services-base-17.0.0/AndroidManifest.xml:25:13-37
	android:theme
		ADDED from [com.google.android.gms:play-services-base:17.0.0] /Users/pramodyadav/.gradle/caches/transforms-2/files-2.1/2631375de80937c90cd3a1032ab35871/jetified-play-services-base-17.0.0/AndroidManifest.xml:26:13-72
	android:name
		ADDED from [com.google.android.gms:play-services-base:17.0.0] /Users/pramodyadav/.gradle/caches/transforms-2/files-2.1/2631375de80937c90cd3a1032ab35871/jetified-play-services-base-17.0.0/AndroidManifest.xml:24:13-79
meta-data#com.google.android.gms.version
ADDED from [com.google.android.gms:play-services-basement:17.0.0] /Users/pramodyadav/.gradle/caches/transforms-2/files-2.1/dcffa74d8d015470a7eae32b9eb648c7/jetified-play-services-basement-17.0.0/AndroidManifest.xml:23:9-25:69
	android:value
		ADDED from [com.google.android.gms:play-services-basement:17.0.0] /Users/pramodyadav/.gradle/caches/transforms-2/files-2.1/dcffa74d8d015470a7eae32b9eb648c7/jetified-play-services-basement-17.0.0/AndroidManifest.xml:25:13-66
	android:name
		ADDED from [com.google.android.gms:play-services-basement:17.0.0] /Users/pramodyadav/.gradle/caches/transforms-2/files-2.1/dcffa74d8d015470a7eae32b9eb648c7/jetified-play-services-basement-17.0.0/AndroidManifest.xml:24:13-58
uses-permission#com.google.android.finsky.permission.BIND_GET_INSTALL_REFERRER_SERVICE
ADDED from [com.android.installreferrer:installreferrer:1.1.2] /Users/pramodyadav/.gradle/caches/transforms-2/files-2.1/150d95ff2179d66a1b5aeef5973627bb/jetified-installreferrer-1.1.2/AndroidManifest.xml:9:5-110
	android:name
		ADDED from [com.android.installreferrer:installreferrer:1.1.2] /Users/pramodyadav/.gradle/caches/transforms-2/files-2.1/150d95ff2179d66a1b5aeef5973627bb/jetified-installreferrer-1.1.2/AndroidManifest.xml:9:22-107
