<svg xmlns="http://www.w3.org/2000/svg" width="16" height="16" fill="none" viewBox="0 0 16 16">
    <path fill="#999" d="M4.114 11.03c0 .472-.255.904-.668 1.13l-1.62.883L1 12.377c.01-.01.03-.01.04-.02l1.945-1.06c.098-.05.157-.157.157-.265v-.629c-.177-.235-.54-.795-.737-1.511-.226-.216-.354-.52-.354-.825v-.874c0-.235.079-.471.216-.667v-1.06c-.01-.08-.078-.914.521-1.601C3.29 3.284 4.075 3 5.146 3c1.07 0 1.867.295 2.368.864.58.658.54 1.463.52 1.62v1.04c.138.197.217.433.217.668v.864c0 .403-.217.776-.56.982-.158.442-.374.854-.64 1.227-.029.05-.068.098-.097.147h-.01v.638c0 .108.069.216.167.266l2.083 1.04c.02.01.049.02.078.04l-.845.677-1.748-.874c-.433-.216-.708-.658-.708-1.149v-1l.118-.138c.05-.06.108-.128.167-.216.246-.344.442-.737.58-1.169l.078-.235.246-.079c.069-.02.118-.078.118-.147v-.874c0-.049-.02-.088-.059-.118l-.167-.147V5.415c0-.04.05-.53-.285-.913-.305-.344-.855-.52-1.621-.52s-1.317.176-1.611.53c-.334.383-.285.864-.285.874v1.541l-.157.147c-.04.03-.06.07-.06.118v.864c0 .059.02.108.07.138l.166.108.05.196c.186.815.687 1.414.687 1.423l.108.138v.972zM10 8H15V9H10zM10 5H15V6H10zM10 11H15V12H10z"/>
</svg>
