<svg xmlns="http://www.w3.org/2000/svg" width="16" height="16" fill="none" viewBox="0 0 16 16">
    <path fill="#222" d="M3.9 15H1v-2.9l5.21-5.212C5.69 5.282 6.105 3.515 7.3 2.32 9.06.56 11.921.56 13.68 2.32 14.532 3.17 15 4.303 15 5.51c0 1.207-.469 2.34-1.32 3.19-1.1 1.102-2.67 1.547-4.196 1.192-.125-.03-.25-.064-.371-.104l-1.177 1.177-1.05.076-.075 1.05-.887.886-1.049.076-.076 1.05L3.9 15zm-2.08-.82h1.74l.443-.443.105-1.452 1.452-.105.455-.455.105-1.452 1.452-.105 1.334-1.334.25.098c.166.065.34.12.514.16 1.248.29 2.531-.073 3.43-.972.696-.696 1.08-1.623 1.08-2.61 0-.988-.384-1.915-1.08-2.61-1.439-1.44-3.78-1.44-5.22 0-1.029 1.028-1.348 2.577-.815 3.946l.098.25-5.343 5.343v1.74z"/>
    <path fill="#222" d="M10.78 7.27c-.525 0-1.05-.2-1.45-.6-.387-.388-.6-.903-.6-1.45 0-.549.213-1.064.6-1.45.8-.8 2.1-.8 2.9 0 .8.799.8 2.1 0 2.9-.4.4-.925.6-1.45.6zm0-3.28c-.315 0-.63.12-.87.36-.232.232-.36.54-.36.87 0 .328.128.637.36.87.48.48 1.26.48 1.74 0s.48-1.261 0-1.74c-.24-.24-.555-.36-.87-.36z"/>
</svg>
