<svg xmlns="http://www.w3.org/2000/svg" width="24" height="24" fill="none" viewBox="0 0 24 24">
    <path fill="#222" fill-rule="evenodd" d="M1.542 19.605l.833-2.83c.02-.057.055-.11.099-.154.51-1.534 1.788-2.71 3.39-3.12l.237-.038c.37-.096.764.025 1.011.31.872.969 1.983 1.046 3.151 1.046 1.17 0 2.28-.077 3.152-1.047.248-.285.641-.405 1.011-.31l.238.059c1.199.311 2.232 1.052 2.894 2.073h2.497c.02 0 .02 0 .04-.02 0-.007.003-.015.007-.024.006-.014.013-.03.013-.053l-.516-1.802c-.456-1.414-1.327-1.84-3.032-2.266-.067-.016-.13-.05-.178-.098-.14.117-.298.213-.456.291-.06.04-.12.04-.18.04-.149-.005-.284-.086-.355-.214-.049-.092-.057-.2-.023-.297.033-.099.105-.18.2-.226.913-.466 1.566-1.783 1.566-3.14-.003-1.204-1.002-2.18-2.24-2.189-.237 0-.455.04-.673.097.219.524.336 1.085.336 1.686 0 3.314-2.041 6.104-4.459 6.104-2.378 0-4.48-2.85-4.48-6.104C5.626 4.957 7.628 3 10.106 3c1.566 0 2.953.794 3.747 1.996.337-.116.692-.175 1.05-.175 1.07 0 2.022.562 2.557 1.395.036-.035.073-.054.11-.073l.008-.004c.298-.156.595-.213.933-.213 1.108-.02 2 .852 2 1.937 0 .62-.178 1.201-.455 1.667.912.232 1.725.58 2.1 1.763l.318 1.123c.06.2.019.414-.11.579-.13.164-.332.259-.544.254h-1.526c.01.04.025.078.04.117.014.039.029.078.039.117l.516 1.82c.078.257.018.533-.159.737-.155.211-.407.334-.674.33h-2.1c.058.135.099.27.138.406l.832 2.849c.08.328.02.677-.198.949-.218.271-.535.426-.872.426H2.613c-.336 0-.674-.155-.872-.426-.223-.273-.296-.634-.199-.969zM13.376 5.752c-.02-.02-.04-.04-.06-.078-.01-.01-.014-.025-.02-.039-.005-.015-.01-.03-.02-.039-.637-1.125-1.852-1.823-3.17-1.821-1.646 0-3.033 1.066-3.51 2.519.712.134 1.439-.145 1.864-.717.138-.175.377-.212.554-.077.07.045.12.114.14.193.01.01.015.02.02.03.005.01.01.019.02.028.553 1.104 2.417 1.57 4.538 1.163-.058-.403-.178-.795-.356-1.162zm-4.678.678c.674.91 1.982 1.395 3.568 1.395.505.001 1.01-.045 1.506-.136-.139 2.712-1.784 5.018-3.667 5.018-1.962 0-3.686-2.5-3.686-5.348 0-.116 0-.212.019-.329.16.039.338.058.496.058.65 0 1.279-.234 1.764-.658zm12.963 6.045l-.278-.97c-.237-.793-.733-1.026-1.724-1.26-.059-.018-.12-.038-.159-.076-.091.075-.19.14-.297.194-.06.038-.119.038-.178.038-.15-.003-.286-.084-.357-.212-.097-.188-.028-.418.158-.524.515-.27.892-1.027.892-1.802 0-.658-.535-1.182-1.21-1.182-.217 0-.396.04-.574.136l-.033.011c-.042.015-.078.028-.125.028.099.29.158.6.158.93 0 1.104-.376 2.189-.97 2.945 1.189.29 2.239.678 2.933 1.744h1.764zm-19.048 7.75c-.1-.002-.193-.044-.258-.117-.06-.077-.08-.193-.06-.29l.437-1.472c.037-.038.065-.085.079-.136l.358-1.201c.4-1.338 1.49-2.374 2.872-2.733l.239-.057c.087-.017.177.013.237.077 1.091 1.22 2.438 1.317 3.746 1.317 1.309 0 2.656-.097 3.747-1.317.059-.058.159-.097.218-.077l.238.057c1.386.353 2.479 1.391 2.874 2.733l.832 2.828c.019.095-.003.193-.06.272-.038.038-.118.116-.257.116H2.613z" clip-rule="evenodd"/>
</svg>
