<svg xmlns="http://www.w3.org/2000/svg" width="24" height="24" fill="none" viewBox="0 0 24 24">
    <circle cx="4.5" cy="12" r="3" fill="#222"/>
    <circle cx="12" cy="12" r="3" fill="#222"/>
    <circle cx="19.5" cy="12" r="3" fill="#222"/>
</svg>
