<svg xmlns="http://www.w3.org/2000/svg" width="24" height="24" fill="none" viewBox="0 0 24 24">
    <path fill="#222" fill-rule="evenodd" d="M21.546 11.032c0-.272.19-.453.477-.453.286 0 .477.181.477.453v5.574c0 .588-.286 1.177-.716 1.585l-2.243 2.13c-.43.452-1.05.68-1.67.68H2.931C2.12 21 1.5 20.41 1.5 19.64v-8.609c0-.272.191-.453.477-.453.287 0 .478.181.478.453v8.609c0 .272.19.453.477.453H17.25c.525 0 .955-.408.955-.906v-.906c0-.77.62-1.36 1.431-1.36h.955c.525 0 .954-.407.954-.906v-4.984zm-2.176 8.563c-.01.045-.02.086-.02.127L21.163 18c-.143.045-.238.045-.334.045h-.954c-.286 0-.477.181-.477.453v.907c0 .074-.015.136-.028.19zM17.727 4.326h3.341c.812 0 1.432.575 1.432 1.327v3.536c0 .266-.19.443-.477.443H1.977c-.286 0-.477-.177-.477-.443V5.653c0-.752.62-1.327 1.432-1.327h3.34v-.884c0-.265.192-.442.478-.442s.477.177.477.442v.884h9.546v-.884c0-.265.19-.442.477-.442.286 0 .477.177.477.442v.884zM2.454 8.747h19.091V5.653c0-.266-.19-.442-.477-.442h-3.34v1.016c.286.133.476.442.476.752 0 .486-.429.884-.954.884-.525 0-.955-.398-.955-.884 0-.31.191-.619.478-.752V5.21H7.227v1.017c.287.133.477.442.477.752 0 .486-.429.884-.954.884-.525 0-.955-.398-.955-.884 0-.31.191-.619.478-.752V5.21H2.932c-.287 0-.478.177-.478.443v3.094z" clip-rule="evenodd"/>
    <ellipse cx="9.5" cy="12.474" fill="#222" rx="1" ry=".947"/>
    <ellipse cx="13.5" cy="12.474" fill="#222" rx="1" ry=".947"/>
    <ellipse cx="18.5" cy="12.474" fill="#222" rx="1" ry=".947"/>
    <ellipse cx="6.5" cy="17.211" fill="#222" rx="1" ry=".947"/>
    <ellipse cx="9.5" cy="17.211" fill="#222" rx="1" ry=".947"/>
    <ellipse cx="13.5" cy="17.211" fill="#222" rx="1" ry=".947"/>
</svg>
