<svg xmlns="http://www.w3.org/2000/svg" width="24" height="24" fill="none" viewBox="0 0 24 24">
    <ellipse cx="12.309" cy="12" fill="#CCC" rx="8.338" ry="8.591"/>
    <path fill="#222" d="M13.702 1.612c.535.092.733.18.764.267.03.088-.08.18-.298.272l-.298.132c-.094.038-.186.083-.275.135-.156.088-.145.18-.19.268-.148.348-.275.707-.382 1.074-.1.35-.173.71-.222 1.074-.048.356-.048.719 0 1.075.05.314-.132.616-.406.673-.274.056-.537-.153-.586-.467-.011-.068-.011-.138 0-.206.05-.356.05-.719 0-1.075-.045-.365-.119-.724-.221-1.074-.106-.368-.233-.727-.382-1.074-.042-.088-.034-.18-.19-.268-.089-.054-.181-.1-.276-.135l-.294-.132c-.221-.092-.313-.18-.297-.272.015-.092.225-.175.763-.267.926-.15 1.865-.15 2.79 0zM22.132 14.222c-.085.032-.175-.082-.264-.307l-.128-.306c-.038-.097-.082-.191-.131-.284-.086-.16-.175-.149-.26-.196-.338-.152-.686-.283-1.043-.393-.34-.102-.689-.179-1.042-.229-.346-.049-.697-.049-1.043 0-.198.034-.4-.033-.53-.175-.129-.142-.167-.337-.1-.511.069-.175.232-.303.43-.336.066-.012.134-.012.2 0 .345.051.697.051 1.043 0 .354-.046.703-.122 1.042-.228.357-.109.706-.24 1.043-.393.085-.044.174-.036.26-.197.05-.091.094-.186.131-.283l.128-.303c.09-.228.175-.322.264-.307.09.016.17.232.26.787.144.954.144 1.921 0 2.875-.09.55-.175.755-.26.786zM9.535 22.117c-.031-.092.076-.176.298-.268l.297-.131c.094-.04.186-.086.276-.136.156-.088.145-.18.19-.268.146-.349.274-.708.383-1.074.1-.35.172-.71.217-1.074.05-.356.05-.719 0-1.075-.05-.314.133-.616.407-.673.274-.056.537.153.587.467.011.068.011.138 0 .206-.05.356-.05.719 0 1.075.044.365.119.724.221 1.074.106.368.233.727.382 1.074.042.088.03.18.191.268.09.052.181.097.275.136l.294.131c.222.092.314.18.298.268-.015.087-.225.18-.764.271-.925.15-1.863.15-2.788 0-.535-.091-.734-.18-.764-.271zM1.872 9.778c.085-.031.174.079.264.307l.127.306c.037.098.081.192.132.284.085.16.174.149.26.196.338.15.686.281 1.041.393.34.103.688.178 1.042.225.345.05.696.05 1.042 0 .197-.033.399.034.528.175.13.142.168.337.1.511-.068.175-.231.303-.429.336-.066.012-.133.012-.2 0-.345-.051-.696-.051-1.041 0-.357.047-.709.125-1.05.232-.357.109-.705.24-1.042.393-.085.044-.174.032-.26.197-.052.09-.096.185-.131.283l-.128.303c-.09.228-.174.322-.263.307-.09-.016-.17-.232-.26-.787-.142-.954-.139-1.921.009-2.874.089-.551.174-.756.259-.787zM20.642 6.79c-.029.086-.177.06-.412-.05l-.317-.14c-.095-.05-.194-.091-.297-.123-.107-.04-.227-.028-.325.034-.34.12-.671.26-.993.424-.31.172-.604.37-.881.593-.275.203-.516.45-.717.729-.11.165-.298.257-.492.241-.194-.016-.365-.137-.45-.318-.083-.18-.066-.394.044-.559.037-.057.085-.106.14-.144.272-.206.511-.455.709-.737.205-.286.387-.59.543-.907.159-.33.297-.672.412-1.02.061-.101.073-.225.033-.336-.03-.105-.07-.207-.12-.305l-.135-.326c-.107-.233-.12-.369-.05-.424.07-.055.293.055.762.424.805.616 1.523 1.343 2.134 2.161.35.483.44.7.412.784zM17.34 21.222c-.083-.03-.058-.182.05-.424l.136-.327c.049-.098.09-.2.12-.305.04-.111.028-.235-.033-.336-.116-.35-.255-.691-.414-1.023-.157-.317-.34-.621-.545-.908-.198-.283-.438-.532-.711-.738-.161-.114-.25-.307-.235-.507.015-.2.133-.377.31-.463.176-.086.384-.07.545.044.056.038.103.088.14.145.194.277.429.521.695.726.28.21.575.398.884.56.323.17.655.32.996.445.098.063.219.075.327.034.103-.031.202-.072.297-.123l.319-.14c.227-.115.36-.123.413-.05.054.071-.054.3-.413.784-.605.824-1.317 1.558-2.116 2.182-.472.36-.683.454-.765.424zM3.77 17.963c-.35-.483-.44-.699-.412-.784.029-.084.177-.059.412.051l.317.14c.095.05.194.091.297.123.107.041.228.029.325-.034.34-.119.671-.26.993-.424.308-.161.603-.348.881-.56.275-.204.517-.45.717-.732.11-.165.298-.257.492-.241.194.016.365.137.45.318.083.18.066.393-.044.558-.037.058-.084.107-.14.145-.272.206-.511.455-.708.737-.206.286-.387.59-.544.907-.159.33-.296.672-.412 1.02-.061.101-.073.225-.033.335.03.106.07.208.12.306l.135.326c.107.233.12.369.05.424-.07.055-.293-.055-.762-.424-.807-.625-1.525-1.363-2.134-2.19zM5.887 3.202c.469-.36.679-.454.76-.424.083.03.058.182-.049.424l-.135.327c-.05.098-.09.2-.12.306-.04.11-.027.235.033.335.123.35.267.692.432 1.023.157.317.338.621.543.908.197.283.436.532.707.739.248.175.31.525.14.78-.17.256-.509.32-.756.145-.056-.038-.103-.087-.14-.145-.2-.28-.442-.526-.716-.73-.278-.21-.572-.398-.88-.56-.32-.17-.652-.32-.991-.445-.097-.063-.217-.076-.325-.034-.102.031-.201.072-.296.123l-.317.14c-.226.11-.358.123-.411.05-.054-.071.053-.3.411-.784.603-.822 1.313-1.555 2.11-2.178z"/>
</svg>
