<svg xmlns="http://www.w3.org/2000/svg" width="24" height="24" fill="none" viewBox="0 0 24 24">
    <path fill="#222" fill-rule="evenodd" d="M3.25 6.4h2.1c.193 0 .35.157.35.35v2.1c0 .193-.157.35-.35.35h-2.1c-.193 0-.35-.157-.35-.35v-2.1c0-.193.157-.35.35-.35zm.35 2.1H5V7.1H3.6v1.4zM10.25 13.4h-2.1c-.193 0-.35-.157-.35-.35v-2.1c0-.193.157-.35.35-.35h2.1c.193 0 .35.157.35.35v2.1c0 .193-.157.35-.35.35zm-.35-2.1H8.5v1.4h1.4v-1.4zM13.75 13.4h-2.1c-.193 0-.35-.157-.35-.35v-2.1c0-.193.157-.35.35-.35h2.1c.193 0 .35.157.35.35v2.1c0 .193-.157.35-.35.35zm-.35-2.1H12v1.4h1.4v-1.4z" clip-rule="evenodd"/>
    <path fill="#222" fill-rule="evenodd" d="M20.4 14.1H19c-.966 0-1.75.784-1.75 1.75 0 .967.784 1.75 1.75 1.75h1.05c1.353 0 2.45 1.097 2.45 2.45 0 1.353-1.097 2.45-2.45 2.45H1.85c-.193 0-.35-.157-.35-.35V5c0-.193.157-.35.35-.35h8.4c.193 0 .35.157.35.35v4.2h4.55c.193 0 .35.157.35.35V21.8h4.55c.966 0 1.75-.784 1.75-1.75s-.784-1.75-1.75-1.75H19c-1.353 0-2.45-1.097-2.45-2.45 0-1.353 1.097-2.45 2.45-2.45h1.4c.773 0 1.4-.627 1.4-1.4 0-.773-.627-1.4-1.4-1.4h-1.05v-.7h1.05c1.16 0 2.1.94 2.1 2.1 0 1.16-.94 2.1-2.1 2.1zm-14 7.7V9.55c0-.193.157-.35.35-.35H9.9V5.35H2.2V21.8h4.2zm5.6 0H9.9v-3.5H12v3.5zm.7 0h2.1V9.9H7.1v11.9h2.1v-3.85c0-.193.157-.35.35-.35h2.8c.193 0 .35.157.35.35v3.85z" clip-rule="evenodd"/>
    <path fill="#222" fill-rule="evenodd" d="M22.5 4.65c0 1.65-2.611 4.172-2.91 4.454-.134.128-.346.128-.48 0C18.81 8.822 16.2 6.3 16.2 4.65c0-1.74 1.41-3.15 3.15-3.15s3.15 1.41 3.15 3.15zm-.7 0c-.001-1.352-1.097-2.448-2.45-2.45-1.352.002-2.448 1.098-2.45 2.45 0 1.036 1.594 2.85 2.45 3.71.856-.86 2.45-2.674 2.45-3.71z" clip-rule="evenodd"/>
    <circle cx="19.35" cy="4.65" r="1.05" fill="#222"/>
</svg>
