<svg xmlns="http://www.w3.org/2000/svg" width="24" height="24" fill="none" viewBox="0 0 24 24">
    <path fill="#222" fill-rule="evenodd" d="M3.157 3.05H16.26c.346 0 .627.273.627.61v16.732c0 .336-.281.61-.627.61H3.157c-.346 0-.627-.274-.627-.61V14.87h-.403c-.346 0-.627-.274-.627-.61 0-.337.28-.61.627-.61h.403v-1.384h-.403c-.346 0-.627-.273-.627-.61 0-.337.28-.61.627-.61h.403V9.663h-.403c-.346 0-.627-.273-.627-.61 0-.337.28-.61.627-.61h.403V3.66c0-.337.281-.61.627-.61zm.628 16.73h11.847V4.27H3.785v4.173h.403c.346 0 .627.273.627.61 0 .337-.281.61-.627.61h-.403v1.384h.403c.346 0 .627.273.627.61 0 .336-.281.61-.627.61h-.403v1.383h.403c.346 0 .627.273.627.61 0 .337-.281.61-.627.61h-.403v4.911z" clip-rule="evenodd"/>
    <path fill="#222" fill-rule="evenodd" d="M9.708 13.158l.463-.45c.749-.729 1.963-.729 2.712 0 .748.728.748 1.91 0 2.638l-2.731 2.656c-.245.238-.643.238-.887 0l-2.732-2.656c-.748-.727-.748-1.91 0-2.638.75-.729 1.963-.729 2.712 0l.463.45zm0 3.55l2.288-2.224c.259-.252.259-.662 0-.913-.26-.253-.68-.253-.939 0l-.905.88c-.245.239-.642.239-.887 0l-.906-.88c-.26-.253-.68-.253-.939 0-.259.251-.259.66 0 .913l2.288 2.225zM13.434 9.37H5.982c-.346 0-.627-.274-.627-.61V5.827c0-.337.28-.61.627-.61h7.452c.346 0 .627.273.627.61v2.931c0 .337-.281.61-.627.61zm-.628-2.933H6.61V8.15h6.197V6.438zM20.309 3h.226c1.084 0 1.965.857 1.965 1.91v10.831l-.001.008c-.002.044-.009.098-.025.151l-1.452 4.667c-.179.576-1.02.576-1.2 0l-1.45-4.656v-.005l-.001-.001c-.013-.042-.021-.086-.024-.13-.002-.015-.003-.031-.003-.047V4.911c0-1.054.881-1.911 1.965-1.911zm.937 3.6h-1.648v8.518h1.648V6.6zm-1.648-1.69c0-.38.319-.69.71-.69h.227c.392 0 .71.31.71.69v.47h-1.647v-.47zm.218 11.428l.606 1.947.606-1.947h-1.212z" clip-rule="evenodd"/>
</svg>
