<svg xmlns="http://www.w3.org/2000/svg" width="24" height="24" fill="none" viewBox="0 0 24 24">
    <path fill="#222" fill-rule="evenodd" d="M22.5 5.96c0-1.219-1.061-2.212-2.365-2.212-1.305 0-2.366.992-2.366 2.211 0 1.043.778 1.918 1.818 2.15v7.943c0 2.99-2.602 5.423-5.802 5.423-3.199 0-5.8-2.433-5.8-5.423v-1.106c3.017-.26 5.388-2.64 5.388-5.527V4.152c0-.867-.547-1.617-1.334-1.965-.144-.411-.549-.689-1.005-.687-.578-.004-1.05.438-1.054.987 0 .543.473.986 1.054.986.276 0 .528-.1.716-.265.317.21.526.554.526.943V9.42c0 2.496-2.171 4.526-4.84 4.526s-4.84-2.03-4.84-4.526V4.151c0-.399.218-.75.549-.957.197.18.46.28.735.279.577.003 1.05-.438 1.054-.987-.005-.549-.477-.99-1.054-.986-.447-.001-.846.264-.996.664-.836.343-1.379 1.123-1.384 1.987V9.42c0 2.888 2.37 5.266 5.388 5.525v1.108c0 3.555 3.095 6.448 6.897 6.448 3.803 0 6.898-2.893 6.898-6.448V8.109c1.04-.232 1.817-1.107 1.817-2.15z" clip-rule="evenodd"/>
</svg>
