<svg xmlns="http://www.w3.org/2000/svg" width="24" height="24" fill="none" viewBox="0 0 24 24">
    <path fill="#222" d="M16.55 21.1h-9.8c-.193 0-.35.157-.35.35v.7c0 .193.157.35.35.35.193 0 .35-.157.35-.35v-.35h9.45c.193 0 .35-.157.35-.35 0-.193-.157-.35-.35-.35zM9.2 10.25c0 .193.157.35.35.35h1.4c.193 0 .35-.157.35-.35v-2.1c0-.193-.157-.35-.35-.35h-1.4c-.193 0-.35.157-.35.35v2.1zm.7-1.75h.7v1.4h-.7V8.5zM6.05 5.7h-4.2c-.193 0-.35.157-.35.35v7c0 .193.157.35.35.35.193 0 .35-.157.35-.35V6.4h3.85c.193 0 .35-.157.35-.35 0-.193-.157-.35-.35-.35zM18.3 18.65c0 .193.157.35.35.35h1.4c.193 0 .35-.157.35-.35v-2.1c0-.193-.157-.35-.35-.35h-1.4c-.193 0-.35.157-.35.35v2.1zm.7-1.75h.7v1.4H19v-1.4zM3.25 14.1c-1.73 0-1.75 4.505-1.75 4.55 0 .845.602 1.552 1.4 1.715v1.785c0 .193.157.35.35.35.193 0 .35-.157.35-.35v-1.785c.798-.163 1.4-.87 1.4-1.715 0-.045-.02-4.55-1.75-4.55zm0 5.6c-.579 0-1.05-.471-1.05-1.05 0-1.744.468-3.85 1.05-3.85.582 0 1.05 2.106 1.05 3.85 0 .579-.471 1.05-1.05 1.05zM5.35 12h-1.4c-.193 0-.35.157-.35.35v.7c0 .193.157.35.35.35.193 0 .35-.157.35-.35v-.35H5v1.75c0 .193.157.35.35.35.193 0 .35-.157.35-.35v-2.1c0-.193-.157-.35-.35-.35zM18.65 10.6h1.4c.193 0 .35-.157.35-.35v-2.1c0-.193-.157-.35-.35-.35h-1.4c-.193 0-.35.157-.35.35v2.1c0 .193.157.35.35.35zM19 8.5h.7v1.4H19V8.5z"/>
    <path fill="#222" d="M5.35 7.8h-1.4c-.193 0-.35.157-.35.35v2.1c0 .193.157.35.35.35h1.4c.193 0 .35-.157.35-.35v-2.1c0-.193-.157-.35-.35-.35zM5 9.9h-.7V8.5H5v1.4zM12.7 10.25c0 .193.157.35.35.35h1.4c.193 0 .35-.157.35-.35v-2.1c0-.193-.157-.35-.35-.35h-1.4c-.193 0-.35.157-.35.35v2.1zm.7-1.75h.7v1.4h-.7V8.5zM22.15 5.7h-4.2c-.193 0-.35.157-.35.35 0 .193.157.35.35.35h3.85v14.064c-.11-.039-.226-.064-.35-.064-.06 0-.12.005-.18.016-.241-.435-.7-.716-1.22-.716-.519 0-.979.28-1.22.716-.06-.01-.12-.016-.18-.016-.579 0-1.05.471-1.05 1.05 0 .579.471 1.05 1.05 1.05h2.8c.579 0 1.05-.471 1.05-1.05V6.05c0-.193-.157-.35-.35-.35zm-.7 16.1h-2.8c-.193 0-.35-.157-.35-.35 0-.193.157-.35.35-.35.067 0 .13.02.19.057.096.062.215.073.321.03.106-.043.184-.134.21-.245.073-.32.353-.542.68-.542.325 0 .605.223.679.542.025.11.103.202.21.245.104.043.224.032.32-.03.228-.147.54.033.54.293 0 .193-.157.35-.35.35zM13.05 6.4h1.4c.193 0 .35-.157.35-.35v-2.1c0-.193-.157-.35-.35-.35h-1.4c-.193 0-.35.157-.35.35v2.1c0 .193.157.35.35.35zm.35-2.1h.7v1.4h-.7V4.3zM12.7 14.45c0 .193.157.35.35.35h1.4c.193 0 .35-.157.35-.35v-2.1c0-.193-.157-.35-.35-.35h-1.4c-.193 0-.35.157-.35.35v2.1zm.7-1.75h.7v1.4h-.7v-1.4zM9.55 6.4h1.4c.193 0 .35-.157.35-.35v-2.1c0-.193-.157-.35-.35-.35h-1.4c-.193 0-.35.157-.35.35v2.1c0 .193.157.35.35.35zm.35-2.1h.7v1.4h-.7V4.3zM11.751 18.402c-.063.066-.101.157-.101.248s.038.182.101.249c.067.063.158.101.249.101.09 0 .182-.038.248-.101.063-.067.102-.158.102-.249 0-.09-.039-.182-.102-.248-.133-.13-.364-.13-.497 0zM9.2 14.45c0 .193.157.35.35.35h1.4c.193 0 .35-.157.35-.35v-2.1c0-.193-.157-.35-.35-.35h-1.4c-.193 0-.35.157-.35.35v2.1zm.7-1.75h.7v1.4h-.7v-1.4z"/>
    <path fill="#222" d="M8.5 16.55c0 .193.157.35.35.35H9.9v3.15c0 .193.157.35.35.35.193 0 .35-.157.35-.35V16.9h2.8v3.15c0 .193.157.35.35.35.193 0 .35-.157.35-.35V16.9h1.05c.193 0 .35-.157.35-.35 0-.193-.157-.35-.35-.35h-6.3c-.193 0-.35.157-.35.35zM18.3 14.45c0 .193.157.35.35.35h1.4c.193 0 .35-.157.35-.35v-2.1c0-.193-.157-.35-.35-.35h-1.4c-.193 0-.35.157-.35.35v2.1zm.7-1.75h.7v1.4H19v-1.4z"/>
    <path fill="#222" d="M16.55 1.5h-9.1c-.193 0-.35.157-.35.35v18.2c0 .193.157.35.35.35.193 0 .35-.157.35-.35V2.2h8.4v17.85c0 .193.157.35.35.35.193 0 .35-.157.35-.35V1.85c0-.193-.157-.35-.35-.35z"/>
</svg>
