<svg xmlns="http://www.w3.org/2000/svg" width="24" height="24" fill="none" viewBox="0 0 24 24">
    <path fill="#000" d="M20.028 3H3.972C2.61 3 1.5 4.004 1.5 5.237v13.526C1.5 19.996 2.61 21 3.972 21h16.056c1.363 0 2.472-1.003 2.472-2.237V5.237C22.5 4.004 21.391 3 20.028 3zM5.799 20.04H3.972c-.778 0-1.412-.573-1.412-1.277V8.586H5.8V20.04zm15.64-1.277c0 .704-.632 1.277-1.41 1.277H6.858V8.586h14.58v10.177zm0-11.137H2.56V5.237c0-.704.634-1.277 1.412-1.277h16.056c.778 0 1.412.573 1.412 1.277v2.39z"/>
    <path fill="#000" d="M4.5 10.5H3V12h1.5v-1.5zM18 10.5h-3V12h3v-1.5zM13.5 10.5H9V12h4.5v-1.5zM18 13.5h-3V15h3v-1.5zM13.5 13.5H9V15h4.5v-1.5zM12 16.5H9V18h3v-1.5z"/>
</svg>
