<svg xmlns="http://www.w3.org/2000/svg" width="24" height="24" fill="none" viewBox="0 0 24 24">
    <path fill="#222" fill-rule="evenodd" d="M3.3 7.692L12 11.32l8.7-3.628L12 4.065 3.3 7.692zm8.7 4.694c-.059 0-.117-.012-.172-.035L1.805 8.173c-.184-.078-.305-.268-.305-.48 0-.213.121-.403.305-.48l10.023-4.179c.11-.045.233-.045.345 0l10.022 4.179c.184.077.305.267.305.48 0 .212-.121.402-.305.48L12.172 12.35c-.055.023-.114.035-.172.035z" clip-rule="evenodd"/>
    <path fill="#222" fill-rule="evenodd" d="M12 16.885c-.058 0-.117-.011-.172-.034L1.805 12.672c-.184-.077-.305-.267-.305-.48 0-.212.121-.402.305-.48l5.011-2.088c.246-.103.522.028.618.293.095.265-.027.563-.273.666L3.3 12.193 12 15.82l8.7-3.628-3.861-1.61c-.246-.102-.368-.4-.273-.665.095-.264.37-.395.617-.293l5.012 2.088c.183.078.305.268.305.48 0 .213-.122.403-.305.48l-10.023 4.179c-.055.023-.114.034-.172.034z" clip-rule="evenodd"/>
    <path fill="#222" fill-rule="evenodd" d="M12 21c-.058 0-.117-.012-.172-.035L1.805 16.787c-.184-.078-.305-.268-.305-.48 0-.213.121-.403.305-.48l4.773-1.993c.246-.103.522.029.617.294.095.265-.027.562-.273.666L3.3 16.306l8.7 3.628 8.702-3.628-3.623-1.512c-.246-.104-.368-.401-.273-.666.095-.265.371-.396.617-.294l4.773 1.993c.183.077.305.267.305.48 0 .212-.122.402-.305.48l-10.023 4.178c-.055.023-.114.035-.172.035z" clip-rule="evenodd"/>
</svg>
