<svg xmlns="http://www.w3.org/2000/svg" width="24" height="24" fill="none" viewBox="0 0 24 24">
    <path fill="#222" fill-rule="evenodd" d="M22.043 4.086h-2.13v-2.13c0-.184-.112-.35-.282-.421-.17-.07-.367-.032-.498.099l-1.97 1.97c-1.628-1.022-3.498-1.56-5.435-1.56C6.088 2.042 1.5 6.63 1.5 12.27c0 5.64 4.588 10.229 10.229 10.229 5.64 0 10.228-4.588 10.228-10.229 0-1.936-.539-3.807-1.562-5.435l1.971-1.97c.13-.13.17-.327.1-.498-.072-.17-.238-.282-.423-.282zm-1 8.186c0 5.136-4.179 9.315-9.315 9.315-5.136 0-9.315-4.179-9.315-9.316 0-5.136 4.179-9.315 9.315-9.315 1.693 0 3.33.453 4.77 1.313l-1.323 1.322c-.085.085-.133.202-.133.323v.982c-.991-.61-2.138-.945-3.313-.945-3.486 0-6.321 2.835-6.321 6.32 0 3.485 2.835 6.32 6.32 6.32 3.484 0 6.32-2.835 6.32-6.32 0-1.176-.335-2.323-.946-3.315h.983c.12 0 .237-.048.323-.133L19.73 7.5c.86 1.44 1.313 3.077 1.313 4.77zm-7.964-1.997l1.963-1.963v-.307c-.944-.734-2.11-1.14-3.312-1.14-2.982 0-5.408 2.425-5.408 5.407 0 2.981 2.425 5.407 5.407 5.407 2.98 0 5.406-2.426 5.406-5.407 0-1.203-.407-2.37-1.141-3.315h-.305l-1.964 1.964c.262.385.415.85.415 1.35 0 1.33-1.082 2.411-2.411 2.411-1.33 0-2.411-1.081-2.411-2.41 0-1.33 1.081-2.412 2.41-2.412.5 0 .966.154 1.351.415zm.147 1.996c0 .826-.672 1.498-1.498 1.498s-1.498-.672-1.498-1.498.672-1.498 1.498-1.498c.247 0 .48.062.685.168l-1.008 1.008c-.179.178-.179.467 0 .645.089.09.206.134.322.134.117 0 .234-.044.323-.134l1.008-1.008c.107.206.168.438.168.685zm6.251-5.808l.012-.012 1.453-1.452h-1.486c-.252 0-.456-.204-.456-.456V3.059l-1.449 1.448-.018.018-1.578 1.578v1.94h1.942l1.58-1.58z" clip-rule="evenodd"/>
</svg>
